0,0.0218734741211
0.02,0.0190353393555
0.04,0.0218734741211
0.06,0.0197448730469
0.08,0.0176181793213
0.1,0.0204544067383
0.12,0.0176181793213
0.14,0.0161991119385
0.16,0.0183258056641
0.18,0.0161991119385
0.2,0.0147800445557
0.22,0.0169086456299
0.24,0.0126533508301
0.26,0.0133628845215
0.28,0.0154895782471
0.3,0.0119438171387
0.32,0.0126533508301
0.34,0.0133628845215
0.36,0.0112342834473
0.38,0.0133628845215
0.4,0.0140705108643
0.42,0.0119438171387
0.44,0.0147800445557
0.46,0.0147800445557
0.48,0.0133628845215
0.5,0.0154895782471
0.52,0.0147800445557
0.54,0.0140705108643
0.56,0.0161991119385
0.58,0.0161991119385
0.6,0.0147800445557
0.62,0.0176181793213
0.64,0.0161991119385
0.66,0.0161991119385
0.68,0.0183258056641
0.7,0.0154895782471
0.72,0.0147800445557
0.74,0.0183258056641
0.76,0.0154895782471
0.78,0.0154895782471
0.8,0.0169086456299
0.82,0.0133628845215
0.84,0.0147800445557
0.86,0.0169086456299
0.88,0.0126533508301
0.9,0.0147800445557
0.92,0.0154895782471
0.94,0.0126533508301
0.96,0.0140705108643
0.98,0.0140705108643
1,0.0105247497559
1.02,0.0140705108643
1.04,0.0133628845215
1.06,0.0119438171387
1.08,0.0147800445557
1.1,0.0133628845215
1.12,0.0112342834473
1.14,0.0126533508301
1.16,0.0119438171387
1.18,0.0112342834473
1.2,0.0133628845215
1.22,0.0119438171387
1.24,0.0105247497559
1.26,0.0119438171387
1.28,0.0119438171387
1.3,0.0119438171387
1.32,0.0140705108643
1.34,0.0119438171387
1.36,0.0133628845215
1.38,0.0147800445557
1.4,0.0140705108643
1.42,0.0147800445557
1.44,0.0147800445557
1.46,0.0154895782471
1.48,0.0161991119385
1.5,0.0169086456299
1.52,0.0161991119385
1.54,0.0183258056641
1.56,0.0197448730469
1.58,0.0190353393555
1.6,0.0218734741211
1.62,0.0218734741211
1.64,0.0225830078125
1.66,0.0225830078125
1.68,0.0240001678467
1.7,0.0240001678467
1.72,0.0261287689209
1.74,0.0254192352295
1.76,0.0254192352295
1.78,0.0282554626465
1.8,0.0282554626465
1.82,0.0289649963379
1.84,0.0296745300293
1.86,0.0289649963379
1.88,0.0282554626465
1.9,0.0303840637207
1.92,0.0310935974121
1.94,0.0303840637207
1.96,0.0310935974121
1.98,0.0303840637207
2,0.0310935974121
2.02,0.0318012237549
2.04,0.0332202911377
2.06,0.0318012237549
2.08,0.0332202911377
2.1,0.0325107574463
2.12,0.0318012237549
2.14,0.0325107574463
2.16,0.0318012237549
2.18,0.0318012237549
2.2,0.0325107574463
2.22,0.0346393585205
2.24,0.0339298248291
2.26,0.0360565185547
2.28,0.0353488922119
2.3,0.0353488922119
2.32,0.0374755859375
2.34,0.0367660522461
2.36,0.0374755859375
2.38,0.0381851196289
2.4,0.0367660522461
2.42,0.0374755859375
2.44,0.0388946533203
2.46,0.0374755859375
2.48,0.0374755859375
2.5,0.0396041870117
2.52,0.0388946533203
2.54,0.0396041870117
2.56,0.0396041870117
2.58,0.0381851196289
2.6,0.0403118133545
2.62,0.0403118133545
2.64,0.0396041870117
2.66,0.0410213470459
2.68,0.0410213470459
2.7,0.0396041870117
2.72,0.0403118133545
2.74,0.0410213470459
2.76,0.0410213470459
2.78,0.0417308807373
2.8,0.0417308807373
2.82,0.0403118133545
2.84,0.0410213470459
2.86,0.0410213470459
2.88,0.0403118133545
2.9,0.0424404144287
2.92,0.0417308807373
2.94,0.0410213470459
2.96,0.0417308807373
2.98,0.0410213470459
3,0.0396041870117
3.02,0.0424404144287
3.04,0.0403118133545
3.06,0.0417308807373
3.08,0.0417308807373
3.1,0.0410213470459
3.12,0.0431499481201
3.14,0.0417308807373
3.16,0.0403118133545
3.18,0.0424404144287
3.2,0.0424404144287
3.22,0.0417308807373
3.24,0.0424404144287
3.26,0.0431499481201
3.28,0.0424404144287
3.3,0.0438594818115
3.32,0.0445690155029
3.34,0.0431499481201
3.36,0.0459861755371
3.38,0.0445690155029
3.4,0.0438594818115
3.42,0.0459861755371
3.44,0.0466957092285
3.46,0.0459861755371
3.48,0.0466957092285
3.5,0.0466957092285
3.52,0.0452766418457
3.54,0.0481147766113
3.56,0.0459861755371
3.58,0.0481147766113
3.6,0.0474052429199
3.62,0.0452766418457
3.64,0.0481147766113
3.66,0.0481147766113
3.68,0.0466957092285
3.7,0.0495319366455
3.72,0.0495319366455
3.74,0.0488243103027
3.76,0.0516605377197
3.78,0.0509510040283
3.8,0.0516605377197
3.82,0.0544967651367
3.84,0.0530796051025
3.86,0.0544967651367
3.88,0.0566253662109
3.9,0.0566253662109
3.92,0.0587520599365
3.94,0.0601711273193
3.96,0.0608806610107
3.98,0.0637168884277
4,0.065845489502
4.02,0.065845489502
4.04,0.0679721832275
4.06,0.0686817169189
4.08,0.0686817169189
4.1,0.0729370117188
4.12,0.0736465454102
4.14,0.0722274780273
4.16,0.075065612793
4.18,0.0729370117188
4.2,0.0715179443359
4.22,0.07790184021
4.24,0.0736465454102
4.26,0.0736465454102
4.28,0.0764827728271
4.3,0.0715179443359
4.32,0.0722274780273
4.34,0.075065612793
4.36,0.0708103179932
4.38,0.0722274780273
4.4,0.0743560791016
4.42,0.0693912506104
4.44,0.0722274780273
4.46,0.0722274780273
4.48,0.0672626495361
4.5,0.0708103179932
4.52,0.0708103179932
4.54,0.0693912506104
4.56,0.0708103179932
4.58,0.0693912506104
4.6,0.0672626495361
4.62,0.0715179443359
4.64,0.0686817169189
4.66,0.0672626495361
4.68,0.0701007843018
4.7,0.0672626495361
4.72,0.0665550231934
4.74,0.0686817169189
4.76,0.0637168884277
4.78,0.0644264221191
4.8,0.0651359558105
4.82,0.0601711273193
4.84,0.0630073547363
4.86,0.0637168884277
4.88,0.0580425262451
4.9,0.0615901947021
4.92,0.0630073547363
4.94,0.0594615936279
4.96,0.0608806610107
4.98,0.0594615936279
5,0.0566253662109
5.02,0.0601711273193
5.04,0.0580425262451
5.06,0.0559158325195
5.08,0.0601711273193
5.1,0.0566253662109
5.12,0.0566253662109
5.14,0.0587520599365
5.16,0.0544967651367
5.18,0.0537872314453
5.2,0.0573348999023
5.22,0.0523700714111
5.24,0.0523700714111
5.26,0.0544967651367
5.28,0.0488243103027
5.3,0.0502414703369
5.32,0.0481147766113
5.34,0.0424404144287
5.36,0.0424404144287
5.38,0.0403118133545
5.4,0.0353488922119
5.42,0.0339298248291
5.44,0.0310935974121
5.46,0.0254192352295
5.48,0.0261287689209
5.5,0.0218734741211
5.52,0.0176181793213
5.54,0.0176181793213
5.56,0.0147800445557
5.58,0.00981521606445
5.6,0.00981521606445
5.62,0.00910758972168
5.64,0.00343322753906
5.66,0.00414276123047
5.68,0.00485229492188
5.7,-0.000822067260742
5.72,-0.00224113464355
5.74,-0.000822067260742
5.76,-0.00224113464355
5.78,-0.00436782836914
5.8,-0.000112533569336
5.82,-0.00295066833496
5.84,-0.00649642944336
5.86,-0.00366020202637
5.88,-0.00649642944336
5.9,-0.0100421905518
5.92,-0.00862312316895
5.94,-0.0114612579346
5.96,-0.0142974853516
5.98,-0.0157165527344
6,-0.0164260864258
6.02,-0.0199718475342
6.04,-0.0228080749512
6.06,-0.0235176086426
6.08,-0.0263538360596
6.1,-0.0299015045166
6.12,-0.0306091308594
6.14,-0.0327377319336
6.16,-0.0348644256592
6.18,-0.0341567993164
6.2,-0.0355739593506
6.22,-0.0384120941162
6.24,-0.0355739593506
6.26,-0.0377025604248
6.28,-0.0398292541504
6.3,-0.0377025604248
6.32,-0.0377025604248
6.34,-0.0412483215332
6.36,-0.0384120941162
6.38,-0.039119720459
6.4,-0.0412483215332
6.42,-0.0405387878418
6.44,-0.039119720459
6.46,-0.0412483215332
6.48,-0.0405387878418
6.5,-0.0412483215332
6.52,-0.042667388916
6.54,-0.0419578552246
6.56,-0.042667388916
6.58,-0.0433769226074
6.6,-0.0440845489502
6.62,-0.0447940826416
6.64,-0.0469226837158
6.66,-0.0469226837158
6.68,-0.0469226837158
6.7,-0.0497589111328
6.72,-0.04833984375
6.74,-0.0497589111328
6.76,-0.0511779785156
6.78,-0.0504684448242
6.8,-0.0525951385498
6.82,-0.0533046722412
6.84,-0.0533046722412
6.86,-0.0540142059326
6.88,-0.054723739624
6.9,-0.0533046722412
6.92,-0.0540142059326
6.94,-0.0533046722412
6.96,-0.0511779785156
6.98,-0.0511779785156
7,-0.0511779785156
7.02,-0.0476322174072
7.04,-0.0476322174072
7.06,-0.04833984375
7.08,-0.0440845489502
7.1,-0.0469226837158
7.12,-0.0440845489502
7.14,-0.0398292541504
7.16,-0.0419578552246
7.18,-0.0384120941162
7.2,-0.0369930267334
7.22,-0.0377025604248
7.24,-0.0341567993164
7.26,-0.033447265625
7.28,-0.036283493042
7.3,-0.0341567993164
7.32,-0.0348644256592
7.34,-0.0348644256592
7.36,-0.0306091308594
7.38,-0.0320281982422
7.4,-0.0313186645508
7.42,-0.0256462097168
7.44,-0.0277729034424
7.46,-0.0263538360596
7.48,-0.0192623138428
7.5,-0.0220985412598
7.52,-0.01784324646
7.54,-0.0135879516602
7.56,-0.0157165527344
7.58,-0.0114612579346
7.6,-0.0107517242432
7.62,-0.0135879516602
7.64,-0.0100421905518
7.66,-0.0114612579346
7.68,-0.012170791626
7.7,-0.00862312316895
7.72,-0.0107517242432
7.74,-0.012170791626
7.76,-0.00791549682617
7.78,-0.0100421905518
7.8,-0.0107517242432
7.82,-0.00791549682617
7.84,-0.00862312316895
7.86,-0.00862312316895
7.88,-0.00649642944336
7.9,-0.00933265686035
7.92,-0.0100421905518
7.94,-0.00720596313477
7.96,-0.00862312316895
7.98,-0.00862312316895
8,-0.00791549682617
8.02,-0.00933265686035
8.04,-0.00791549682617
8.06,-0.00791549682617
8.08,-0.0107517242432
8.1,-0.00933265686035
8.12,-0.00862312316895
8.14,-0.012170791626
8.16,-0.0100421905518
8.18,-0.0100421905518
8.2,-0.0114612579346
8.22,-0.00933265686035
8.24,-0.00933265686035
8.26,-0.00933265686035
8.28,-0.00720596313477
8.3,-0.0100421905518
8.32,-0.00933265686035
8.34,-0.00720596313477
8.36,-0.00862312316895
8.38,-0.00791549682617
8.4,-0.00649642944336
8.42,-0.00791549682617
8.44,-0.00720596313477
8.46,-0.00507736206055
8.48,-0.00720596313477
8.5,-0.00578689575195
8.52,-0.00507736206055
8.54,-0.00720596313477
8.56,-0.00507736206055
8.58,-0.00578689575195
8.6,-0.00720596313477
8.62,-0.00436782836914
8.64,-0.00578689575195
8.66,-0.00649642944336
8.68,-0.00507736206055
8.7,-0.00507736206055
8.72,-0.00649642944336
8.74,-0.00578689575195
8.76,-0.00649642944336
8.78,-0.00649642944336
8.8,-0.00649642944336
8.82,-0.00791549682617
8.84,-0.00791549682617
8.86,-0.00791549682617
8.88,-0.0100421905518
8.9,-0.00933265686035
8.92,-0.00933265686035
8.94,-0.012170791626
8.96,-0.0114612579346
8.98,-0.012170791626
9,-0.0142974853516
9.02,-0.015007019043
9.04,-0.015007019043
9.06,-0.0164260864258
9.08,-0.0157165527344
9.1,-0.0171337127686
9.12,-0.0185527801514
9.14,-0.0185527801514
9.16,-0.0206813812256
9.18,-0.0206813812256
9.2,-0.0206813812256
9.22,-0.0220985412598
9.24,-0.021390914917
9.26,-0.0220985412598
9.28,-0.0235176086426
9.3,-0.0235176086426
9.32,-0.0228080749512
9.34,-0.0235176086426
9.36,-0.0249366760254
9.38,-0.0235176086426
9.4,-0.024227142334
9.42,-0.0249366760254
9.44,-0.0235176086426
9.46,-0.0256462097168
9.48,-0.0263538360596
9.5,-0.0256462097168
9.52,-0.0256462097168
9.54,-0.027063369751
9.56,-0.027063369751
9.58,-0.027063369751
9.6,-0.0277729034424
9.62,-0.0299015045166
9.64,-0.0284824371338
9.66,-0.0306091308594
9.68,-0.0284824371338
9.7,-0.0284824371338
9.72,-0.0320281982422
9.74,-0.0306091308594
9.76,-0.0299015045166
9.78,-0.0320281982422
9.8,-0.0320281982422
9.82,-0.0313186645508
9.84,-0.0313186645508
9.86,-0.0320281982422
9.88,-0.0313186645508
9.9,-0.0327377319336
9.92,-0.0327377319336
9.94,-0.0313186645508
9.96,-0.0327377319336
9.98,-0.033447265625
10,-0.0327377319336
10.02,-0.033447265625
10.04,-0.0341567993164
10.06,-0.0327377319336
10.08,-0.0327377319336
10.1,-0.033447265625
10.12,-0.033447265625
10.14,-0.033447265625
10.16,-0.0348644256592
10.18,-0.0341567993164
10.2,-0.033447265625
10.22,-0.0348644256592
10.24,-0.0348644256592
10.26,-0.0341567993164
10.28,-0.0341567993164
10.3,-0.0355739593506
10.32,-0.033447265625
10.34,-0.0355739593506
10.36,-0.036283493042
10.38,-0.0355739593506
10.4,-0.0377025604248
10.42,-0.0369930267334
10.44,-0.036283493042
10.46,-0.0369930267334
10.48,-0.0384120941162
10.5,-0.0377025604248
10.52,-0.0384120941162
10.54,-0.0377025604248
10.56,-0.0384120941162
10.58,-0.0369930267334
10.6,-0.0377025604248
10.62,-0.0369930267334
10.64,-0.0377025604248
10.66,-0.0377025604248
10.68,-0.0377025604248
10.7,-0.039119720459
10.72,-0.0377025604248
10.74,-0.039119720459
10.76,-0.0384120941162
10.78,-0.0384120941162
10.8,-0.0384120941162
10.82,-0.039119720459
10.84,-0.039119720459
10.86,-0.039119720459
10.88,-0.0398292541504
10.9,-0.0384120941162
10.92,-0.0405387878418
10.94,-0.0398292541504
10.96,-0.039119720459
10.98,-0.0398292541504
11,-0.0405387878418
11.02,-0.039119720459
11.04,-0.042667388916
11.06,-0.0412483215332
11.08,-0.0412483215332
11.1,-0.0440845489502
11.12,-0.0440845489502
11.14,-0.0440845489502
11.16,-0.0469226837158
11.18,-0.0469226837158
11.2,-0.0490493774414
11.22,-0.0533046722412
11.24,-0.0525951385498
11.26,-0.054723739624
11.28,-0.0589790344238
11.3,-0.0582695007324
11.32,-0.0618152618408
11.34,-0.0646533966064
11.36,-0.063943862915
11.38,-0.0681991577148
11.4,-0.0703258514404
11.42,-0.0681991577148
11.44,-0.0731639862061
11.46,-0.0717449188232
11.48,-0.0710353851318
11.5,-0.076000213623
11.52,-0.0731639862061
11.54,-0.0717449188232
11.56,-0.0767097473145
11.58,-0.0724544525146
11.6,-0.0738735198975
11.62,-0.076000213623
11.64,-0.0724544525146
11.66,-0.0724544525146
11.68,-0.0745811462402
11.7,-0.0696182250977
11.72,-0.0724544525146
11.74,-0.0738735198975
11.76,-0.0689086914062
11.78,-0.0724544525146
11.8,-0.0724544525146
11.82,-0.0710353851318
11.84,-0.0738735198975
11.86,-0.0724544525146
11.88,-0.0710353851318
11.9,-0.0731639862061
11.92,-0.0710353851318
11.94,-0.0703258514404
11.96,-0.0724544525146
11.98,-0.0689086914062
12,-0.0681991577148
12.02,-0.0703258514404
12.04,-0.0660705566406
12.06,-0.0674896240234
12.08,-0.0674896240234
12.1,-0.0646533966064
12.12,-0.0681991577148
12.14,-0.0660705566406
12.16,-0.0625247955322
12.18,-0.066780090332
12.2,-0.066780090332
12.22,-0.0632343292236
12.24,-0.0674896240234
12.26,-0.0646533966064
12.28,-0.0618152618408
12.3,-0.0653629302979
12.32,-0.0625247955322
12.34,-0.0603981018066
12.36,-0.063943862915
12.38,-0.0582695007324
12.4,-0.0561428070068
12.42,-0.0561428070068
12.44,-0.0497589111328
12.46,-0.0469226837158
12.48,-0.0447940826416
12.5,-0.036283493042
12.52,-0.0327377319336
12.54,-0.0299015045166
12.56,-0.024227142334
12.58,-0.0220985412598
12.6,-0.0185527801514
12.62,-0.012170791626
12.64,-0.0107517242432
12.66,-0.00791549682617
12.68,-0.00224113464355
12.7,-0.00224113464355
12.72,0.000595092773438
12.74,0.00201416015625
12.76,-0.00153160095215
12.78,0.000595092773438
12.8,0.00343322753906
12.82,0.00414276123047
12.84,0.00768852233887
12.86,0.0112342834473
12.88,0.0112342834473
12.9,0.0140705108643
12.92,0.0190353393555
12.94,0.0211639404297
12.96,0.0254192352295
12.98,0.0310935974121
13,0.0325107574463
13.02,0.0374755859375
13.04,0.0396041870117
13.06,0.0410213470459
13.08,0.0438594818115
13.1,0.0431499481201
13.12,0.0438594818115
13.14,0.0466957092285
13.16,0.0445690155029
13.18,0.0466957092285
13.2,0.0474052429199
13.22,0.0474052429199
13.24,0.0488243103027
13.26,0.0509510040283
13.28,0.0516605377197
13.3,0.0523700714111
13.32,0.0523700714111
13.34,0.0516605377197
13.36,0.0544967651367
13.38,0.0552062988281
13.4,0.0559158325195
13.42,0.0566253662109
13.44,0.0573348999023
13.46,0.0594615936279
13.48,0.0587520599365
13.5,0.0608806610107
13.52,0.0608806610107
13.54,0.0622978210449
13.56,0.0637168884277
13.58,0.0630073547363
13.6,0.0608806610107
13.62,0.0637168884277
13.64,0.0608806610107
13.66,0.0594615936279
13.68,0.0594615936279
13.7,0.0587520599365
13.72,0.0537872314453
13.74,0.0566253662109
13.76,0.0559158325195
13.78,0.0516605377197
13.8,0.0523700714111
13.82,0.0523700714111
13.84,0.0495319366455
13.86,0.0488243103027
13.88,0.0495319366455
13.9,0.0452766418457
13.92,0.0452766418457
13.94,0.0452766418457
13.96,0.0424404144287
13.98,0.0417308807373
14,0.0459861755371
14.02,0.0474052429199
14.04,0.0438594818115
14.06,0.0474052429199
14.08,0.0459861755371
14.1,0.0438594818115
14.12,0.0438594818115
14.14,0.0431499481201
14.16,0.0381851196289
14.18,0.0403118133545
14.2,0.0381851196289
14.22,0.0332202911377
14.24,0.0325107574463
14.26,0.0310935974121
14.28,0.0247097015381
14.3,0.0225830078125
14.32,0.0232906341553
14.34,0.0197448730469
14.36,0.0169086456299
14.38,0.0197448730469
14.4,0.0169086456299
14.42,0.0161991119385
14.44,0.0176181793213
14.46,0.0154895782471
14.48,0.0140705108643
14.5,0.0161991119385
14.52,0.0140705108643
14.54,0.0126533508301
14.56,0.0147800445557
14.58,0.0119438171387
14.6,0.0119438171387
14.62,0.0147800445557
14.64,0.0126533508301
14.66,0.0140705108643
14.68,0.0161991119385
14.7,0.0133628845215
14.72,0.0161991119385
14.74,0.0176181793213
14.76,0.0147800445557
14.78,0.0161991119385
14.8,0.0183258056641
14.82,0.0147800445557
14.84,0.0176181793213
14.86,0.0161991119385
14.88,0.0147800445557
14.9,0.0161991119385
14.92,0.0154895782471
14.94,0.0140705108643
14.96,0.0154895782471
14.98,0.0147800445557
15,0.0133628845215
15.02,0.0147800445557
15.04,0.0140705108643
15.06,0.0112342834473
15.08,0.0133628845215
15.1,0.0119438171387
15.12,0.0112342834473
15.14,0.0126533508301
15.16,0.00839805603027
15.18,0.0119438171387
15.2,0.0112342834473
15.22,0.00981521606445
15.24,0.0112342834473
15.26,0.0119438171387
15.28,0.0105247497559
15.3,0.0133628845215
15.32,0.0140705108643
15.34,0.0133628845215
15.36,0.0154895782471
15.38,0.0154895782471
15.4,0.0161991119385
15.42,0.0190353393555
15.44,0.0197448730469
15.46,0.0190353393555
15.48,0.0204544067383
15.5,0.0204544067383
15.52,0.0240001678467
15.54,0.0240001678467
15.56,0.0261287689209
15.58,0.0261287689209
15.6,0.0282554626465
15.62,0.0289649963379
15.64,0.0275459289551
15.66,0.0296745300293
15.68,0.0296745300293
15.7,0.0296745300293
15.72,0.0303840637207
15.74,0.0310935974121
15.76,0.0303840637207
15.78,0.0310935974121
15.8,0.0303840637207
15.82,0.0318012237549
15.84,0.0332202911377
15.86,0.0310935974121
15.88,0.0339298248291
15.9,0.0346393585205
15.92,0.0339298248291
15.94,0.0367660522461
15.96,0.0374755859375
15.98,0.0367660522461
16,0.0374755859375
16.02,0.0374755859375
16.04,0.0367660522461
16.06,0.0388946533203
16.08,0.0381851196289
16.1,0.0388946533203
16.12,0.0396041870117
16.14,0.0396041870117
16.16,0.0396041870117
16.18,0.0417308807373
16.2,0.0403118133545
16.22,0.0396041870117
16.24,0.0417308807373
16.26,0.0410213470459
16.28,0.0410213470459
16.3,0.0424404144287
16.32,0.0417308807373
16.34,0.0417308807373
16.36,0.0424404144287
16.38,0.0410213470459
16.4,0.0417308807373
16.42,0.0424404144287
16.44,0.0410213470459
16.46,0.0424404144287
16.48,0.0431499481201
16.5,0.0438594818115
16.52,0.0431499481201
16.54,0.0438594818115
16.56,0.0424404144287
16.58,0.0438594818115
16.6,0.0438594818115
16.62,0.0452766418457
16.64,0.0459861755371
16.66,0.0459861755371
16.68,0.0466957092285
16.7,0.0474052429199
16.72,0.0466957092285
16.74,0.0481147766113
16.76,0.0495319366455
16.78,0.0488243103027
16.8,0.0509510040283
16.82,0.0516605377197
16.84,0.0509510040283
16.86,0.0530796051025
16.88,0.0537872314453
16.9,0.0530796051025
16.92,0.0580425262451
16.94,0.0566253662109
16.96,0.0608806610107
16.98,0.0637168884277
17,0.0644264221191
17.02,0.0672626495361
17.04,0.0736465454102
17.06,0.0743560791016
17.08,0.0814476013184
17.1,0.0849933624268
17.12,0.0857028961182
17.14,0.0927963256836
17.16,0.0949230194092
17.18,0.0949230194092
17.2,0.101306915283
17.22,0.101306915283
17.24,0.0998878479004
17.26,0.104852676392
17.28,0.102014541626
17.3,0.103433609009
17.32,0.106979370117
17.34,0.103433609009
17.36,0.1041431427
17.38,0.107688903809
17.4,0.105562210083
17.42,0.107688903809
17.44,0.110527038574
17.46,0.1041431427
17.48,0.106271743774
17.5,0.1083984375
17.52,0.102724075317
17.54,0.105562210083
17.56,0.105562210083
17.58,0.102014541626
17.6,0.103433609009
17.62,0.105562210083
17.64,0.100597381592
17.66,0.099178314209
17.68,0.102014541626
17.7,0.0984687805176
17.72,0.0984687805176
17.74,0.0998878479004
17.76,0.0977592468262
17.78,0.096342086792
17.8,0.099178314209
17.82,0.096342086792
17.84,0.0935039520264
17.86,0.0984687805176
17.88,0.0956325531006
17.9,0.0885410308838
17.92,0.0949230194092
17.94,0.0949230194092
17.96,0.0878314971924
17.98,0.0885410308838
18,0.0906677246094
18.02,0.0849933624268
18.04,0.0828666687012
18.06,0.0835762023926
18.08,0.0786113739014
18.1,0.0722274780273
18.12,0.0701007843018
18.14,0.0622978210449
18.16,0.0559158325195
18.18,0.0523700714111
18.2,0.0474052429199
18.22,0.0396041870117
18.24,0.0374755859375
18.26,0.0339298248291
18.28,0.0247097015381
18.3,0.0218734741211
18.32,0.0211639404297
18.34,0.0133628845215
18.36,0.00768852233887
18.38,0.00910758972168
18.4,0.00768852233887
18.42,0.00626945495605
18.44,0.00981521606445
18.46,0.00839805603027
18.48,0.00130462646484
18.5,0.00201416015625
18.52,0.00130462646484
18.54,-0.00295066833496
18.56,-0.00366020202637
18.58,0.00768852233887
18.6,0.0587520599365
18.62,-0.168199539185
18.64,-0.0802555084229
18.66,-0.0398292541504
18.68,0.0261287689209
18.7,0.209817886353
18.72,-0.229192733765
18.74,0.394216537476
18.76,0.267265319824
18.78,0.229675292969
18.8,-0.0689086914062
18.82,-0.752603530884
18.84,-0.712177276611
18.86,-0.17954826355
18.88,-0.108625411987
18.9,-0.0873489379883
18.92,-0.0767097473145
18.94,-0.0681991577148
18.96,-0.0752906799316
18.98,-0.0866394042969
19,-0.0873489379883
19.02,-0.0859298706055
19.04,-0.0830936431885
19.06,-0.0880565643311
19.08,-0.0880565643311
19.1,-0.0859298706055
19.12,-0.0880565643311
19.14,-0.0852203369141
19.16,-0.0795459747314
19.18,-0.0816745758057
19.2,-0.0752906799316
19.22,-0.0674896240234
19.24,-0.0646533966064
19.26,-0.0625247955322
19.28,-0.054723739624
19.3,-0.0582695007324
19.32,-0.0533046722412
19.34,-0.04833984375
19.36,-0.0504684448242
19.38,-0.0497589111328
19.4,-0.04833984375
19.42,-0.051887512207
19.44,-0.045503616333
19.46,-0.0433769226074
19.48,-0.0462131500244
19.5,-0.0377025604248
19.52,-0.0355739593506
19.54,-0.036283493042
19.56,-0.0263538360596
19.58,-0.0235176086426
19.6,-0.0220985412598
19.62,-0.0135879516602
19.64,-0.015007019043
19.66,-0.0157165527344
19.68,-0.0107517242432
19.7,-0.0142974853516
19.72,-0.0128784179688
19.74,-0.00862312316895
19.76,-0.012170791626
19.78,-0.0107517242432
19.8,-0.00791549682617
19.82,-0.012170791626
19.84,-0.0107517242432
19.86,-0.0100421905518
19.88,-0.012170791626
19.9,-0.0100421905518
19.92,-0.00933265686035
19.94,-0.0128784179688
19.96,-0.0114612579346
19.98,-0.0100421905518
20,-0.0142974853516
20.02,-0.0107517242432
20.04,-0.0100421905518
20.06,-0.012170791626
20.08,-0.00862312316895
20.1,-0.00862312316895
20.12,-0.0107517242432
20.14,-0.00791549682617
20.16,-0.00862312316895
20.18,-0.00933265686035
20.2,-0.00720596313477
20.22,-0.00791549682617
20.24,-0.00933265686035
20.26,-0.00578689575195
20.28,-0.00649642944336
20.3,-0.00720596313477
20.32,-0.00578689575195
20.34,-0.00720596313477
20.36,-0.00649642944336
20.38,-0.00578689575195
20.4,-0.00720596313477
20.42,-0.00791549682617
20.44,-0.00649642944336
20.46,-0.00862312316895
20.48,-0.00933265686035
20.5,-0.00933265686035
20.52,-0.012170791626
20.54,-0.0114612579346
20.56,-0.0128784179688
20.58,-0.015007019043
20.6,-0.0157165527344
20.62,-0.0171337127686
20.64,-0.0185527801514
20.66,-0.0206813812256
20.68,-0.0206813812256
20.7,-0.0220985412598
20.72,-0.021390914917
20.74,-0.0228080749512
20.76,-0.0235176086426
20.78,-0.024227142334
20.8,-0.024227142334
20.82,-0.0256462097168
20.84,-0.024227142334
20.86,-0.0256462097168
20.88,-0.0277729034424
20.9,-0.027063369751
20.92,-0.0263538360596
20.94,-0.0284824371338
20.96,-0.0291919708252
20.98,-0.0299015045166
21,-0.0313186645508
21.02,-0.0313186645508
21.04,-0.0313186645508
21.06,-0.033447265625
21.08,-0.0320281982422
21.1,-0.0341567993164
21.12,-0.0355739593506
21.14,-0.033447265625
21.16,-0.033447265625
21.18,-0.0341567993164
21.2,-0.0327377319336
21.22,-0.0341567993164
21.24,-0.0355739593506
21.26,-0.0355739593506
21.28,-0.036283493042
21.3,-0.036283493042
21.32,-0.0355739593506
21.34,-0.036283493042
21.36,-0.036283493042
21.38,-0.0369930267334
21.4,-0.0384120941162
21.42,-0.039119720459
21.44,-0.0384120941162
21.46,-0.0405387878418
21.48,-0.0398292541504
21.5,-0.0398292541504
21.52,-0.0405387878418
21.54,-0.039119720459
21.56,-0.0405387878418
21.58,-0.0398292541504
21.6,-0.039119720459
21.62,-0.0412483215332
21.64,-0.0412483215332
21.66,-0.0405387878418
21.68,-0.042667388916
21.7,-0.0412483215332
21.72,-0.0405387878418
21.74,-0.0419578552246
21.76,-0.0398292541504
21.78,-0.042667388916
21.8,-0.0433769226074
21.82,-0.0419578552246
21.84,-0.0440845489502
21.86,-0.0447940826416
21.88,-0.0469226837158
21.9,-0.0511779785156
21.92,-0.051887512207
21.94,-0.0540142059326
21.96,-0.0589790344238
21.98,-0.0596885681152
22,-0.0625247955322
22.02,-0.0681991577148
22.04,-0.0681991577148
22.06,-0.0703258514404
22.08,-0.0738735198975
22.1,-0.0717449188232
22.12,-0.0752906799316
22.14,-0.0774192810059
22.16,-0.0738735198975
22.18,-0.0767097473145
22.2,-0.0781288146973
22.22,-0.0724544525146
22.24,-0.0752906799316
22.26,-0.0731639862061
22.28,-0.0717449188232
22.3,-0.076000213623
22.32,-0.0731639862061
22.34,-0.0717449188232
22.36,-0.076000213623
22.38,-0.0717449188232
22.4,-0.0724544525146
22.42,-0.0738735198975
22.44,-0.0703258514404
22.46,-0.0710353851318
22.48,-0.0717449188232
22.5,-0.0674896240234
22.52,-0.0689086914062
22.54,-0.0696182250977
22.56,-0.066780090332
22.58,-0.0660705566406
22.6,-0.0696182250977
22.62,-0.0653629302979
22.64,-0.0646533966064
22.66,-0.0689086914062
22.68,-0.0660705566406
22.7,-0.063943862915
22.72,-0.0674896240234
22.74,-0.0646533966064
22.76,-0.0596885681152
22.78,-0.0632343292236
22.8,-0.0603981018066
22.82,-0.054723739624
22.84,-0.0533046722412
22.86,-0.0497589111328
22.88,-0.0419578552246
22.9,-0.0377025604248
22.92,-0.0341567993164
22.94,-0.027063369751
22.96,-0.0220985412598
22.98,-0.0220985412598
23,-0.015007019043
23.02,-0.0114612579346
23.04,-0.00862312316895
23.06,-0.00436782836914
23.08,0.000595092773438
23.1,-0.00224113464355
23.12,-0.00224113464355
23.14,0.00201416015625
23.16,0.00343322753906
23.18,0.00485229492188
23.2,0.0105247497559
23.22,0.0133628845215
23.24,0.0147800445557
23.26,0.0204544067383
23.28,0.0261287689209
23.3,0.0289649963379
23.32,0.0346393585205
23.34,0.0417308807373
23.36,0.0410213470459
23.38,0.0431499481201
23.4,0.0459861755371
23.42,0.0445690155029
23.44,0.0466957092285
23.46,0.0474052429199
23.48,0.0474052429199
23.5,0.0488243103027
23.52,0.0516605377197
23.54,0.0502414703369
23.56,0.0530796051025
23.58,0.0544967651367
23.6,0.0544967651367
23.62,0.0566253662109
23.64,0.0566253662109
23.66,0.0580425262451
23.68,0.0601711273193
23.7,0.0615901947021
23.72,0.0608806610107
23.74,0.0622978210449
23.76,0.0644264221191
23.78,0.0630073547363
23.8,0.0615901947021
23.82,0.0615901947021
23.84,0.0587520599365
23.86,0.0573348999023
23.88,0.0573348999023
23.9,0.0537872314453
23.92,0.0530796051025
23.94,0.0516605377197
23.96,0.0474052429199
23.98,0.0474052429199
24,0.0445690155029
24.02,0.0438594818115
24.04,0.0502414703369
24.06,0.0481147766113
24.08,0.0424404144287
24.1,0.0452766418457
24.12,0.0403118133545
24.14,0.0367660522461
24.16,0.0381851196289
24.18,0.0310935974121
24.2,0.0254192352295
24.22,0.0261287689209
24.24,0.0190353393555
24.26,0.0190353393555
24.28,0.0211639404297
24.3,0.0161991119385
24.32,0.0169086456299
24.34,0.0183258056641
24.36,0.0126533508301
24.38,0.0147800445557
24.4,0.0140705108643
24.42,0.0112342834473
24.44,0.0133628845215
24.46,0.0147800445557
24.48,0.0119438171387
24.5,0.0147800445557
24.52,0.0147800445557
24.54,0.0147800445557
24.56,0.0161991119385
24.58,0.0161991119385
24.6,0.0154895782471
24.62,0.0161991119385
24.64,0.0154895782471
24.66,0.0154895782471
24.68,0.0169086456299
24.7,0.0133628845215
24.72,0.0147800445557
24.74,0.0140705108643
24.76,0.0133628845215
24.78,0.0133628845215
24.8,0.0140705108643
24.82,0.0112342834473
24.84,0.0133628845215
24.86,0.0126533508301
24.88,0.00910758972168
24.9,0.0119438171387
24.92,0.0119438171387
24.94,0.0105247497559
24.96,0.0126533508301
24.98,0.0119438171387
25,0.0119438171387
25.02,0.0133628845215
25.04,0.0133628845215
25.06,0.0147800445557
25.08,0.0169086456299
25.1,0.0176181793213
25.12,0.0183258056641
25.14,0.0197448730469
25.16,0.0204544067383
25.18,0.0218734741211
25.2,0.0232906341553
25.22,0.0247097015381
25.24,0.0254192352295
25.26,0.0268383026123
25.28,0.0282554626465
25.3,0.0282554626465
25.32,0.0296745300293
25.34,0.0296745300293
25.36,0.0289649963379
25.38,0.0310935974121
25.4,0.0318012237549
25.42,0.0310935974121
25.44,0.0318012237549
25.46,0.0325107574463
25.48,0.0318012237549
25.5,0.0339298248291
25.52,0.0346393585205
25.54,0.0353488922119
25.56,0.0360565185547
25.58,0.0346393585205
25.6,0.0367660522461
25.62,0.0381851196289
25.64,0.0367660522461
25.66,0.0381851196289
25.68,0.0396041870117
25.7,0.0388946533203
25.72,0.0396041870117
25.74,0.0410213470459
25.76,0.0388946533203
25.78,0.0410213470459
25.8,0.0410213470459
25.82,0.0403118133545
25.84,0.0417308807373
25.86,0.0410213470459
25.88,0.0396041870117
25.9,0.0417308807373
25.92,0.0417308807373
25.94,0.0410213470459
25.96,0.0417308807373
25.98,0.0424404144287
26,0.0424404144287
26.02,0.0431499481201
26.04,0.0438594818115
26.06,0.0445690155029
26.08,0.0452766418457
26.1,0.0445690155029
26.12,0.0452766418457
26.14,0.0488243103027
26.16,0.0466957092285
26.18,0.0481147766113
26.2,0.0488243103027
26.22,0.0466957092285
26.24,0.0481147766113
26.26,0.0495319366455
26.28,0.0466957092285
26.3,0.0495319366455
26.32,0.0474052429199
26.34,0.0488243103027
26.36,0.0495319366455
26.38,0.0481147766113
26.4,0.0502414703369
26.42,0.0502414703369
26.44,0.0502414703369
26.46,0.0530796051025
26.48,0.0544967651367
26.5,0.0544967651367
26.52,0.0573348999023
26.54,0.0608806610107
26.56,0.0615901947021
26.58,0.0651359558105
26.6,0.0686817169189
26.62,0.0665550231934
26.64,0.0693912506104
26.66,0.075065612793
26.68,0.0722274780273
26.7,0.0743560791016
26.72,0.0771923065186
26.74,0.0743560791016
26.76,0.075065612793
26.78,0.07790184021
26.8,0.075065612793
26.82,0.0743560791016
26.84,0.0771923065186
26.86,0.0764827728271
26.88,0.0729370117188
26.9,0.0764827728271
26.92,0.075065612793
26.94,0.0701007843018
26.96,0.075065612793
26.98,0.0743560791016
27,0.0708103179932
27.02,0.0743560791016
27.04,0.0729370117188
27.06,0.0693912506104
27.08,0.0715179443359
27.1,0.0722274780273
27.12,0.0665550231934
27.14,0.0665550231934
27.16,0.0701007843018
27.18,0.065845489502
27.2,0.0665550231934
27.22,0.0672626495361
27.24,0.0651359558105
27.26,0.0637168884277
27.28,0.065845489502
27.3,0.0615901947021
27.32,0.0608806610107
27.34,0.0630073547363
27.36,0.0608806610107
27.38,0.0573348999023
27.4,0.0608806610107
27.42,0.0587520599365
27.44,0.0530796051025
27.46,0.0552062988281
27.48,0.0552062988281
27.5,0.0502414703369
27.52,0.0481147766113
27.54,0.0466957092285
27.56,0.0388946533203
27.58,0.0367660522461
27.6,0.0318012237549
27.62,0.0247097015381
27.64,0.0240001678467
27.66,0.0183258056641
27.68,0.0105247497559
27.7,0.0105247497559
27.72,0.00485229492188
27.74,0.00130462646484
27.76,0.00201416015625
27.78,-0.000822067260742
27.8,-0.00507736206055
27.82,-0.00507736206055
27.84,-0.0107517242432
27.86,-0.015007019043
27.88,-0.0164260864258
27.9,-0.024227142334
27.92,-0.0291919708252
27.94,-0.0320281982422
27.96,-0.0377025604248
27.98,-0.0384120941162
28,-0.0398292541504
28.02,-0.0412483215332
28.04,-0.0398292541504
28.06,-0.0412483215332
28.08,-0.0433769226074
28.1,-0.0419578552246
28.12,-0.0433769226074
28.14,-0.0462131500244
28.16,-0.0447940826416
28.18,-0.0462131500244
28.2,-0.0476322174072
28.22,-0.04833984375
28.24,-0.04833984375
28.26,-0.0504684448242
28.28,-0.0504684448242
28.3,-0.0504684448242
28.32,-0.051887512207
28.34,-0.0525951385498
28.36,-0.054723739624
28.38,-0.0568504333496
28.4,-0.0561428070068
28.42,-0.0540142059326
28.44,-0.0554332733154
28.46,-0.0540142059326
28.48,-0.054723739624
28.5,-0.054723739624
28.52,-0.0525951385498
28.54,-0.0525951385498
28.56,-0.0540142059326
28.58,-0.0504684448242
28.6,-0.0490493774414
28.62,-0.0476322174072
28.64,-0.0419578552246
28.66,-0.0447940826416
28.68,-0.0447940826416
28.7,-0.0412483215332
28.72,-0.0433769226074
28.74,-0.0405387878418
28.76,-0.0341567993164
28.78,-0.0377025604248
28.8,-0.0313186645508
28.82,-0.027063369751
28.84,-0.0284824371338
28.86,-0.0199718475342
28.88,-0.0157165527344
28.9,-0.0171337127686
28.92,-0.0128784179688
28.94,-0.0135879516602
28.96,-0.015007019043
28.98,-0.0100421905518
29,-0.012170791626
29.02,-0.0128784179688
29.04,-0.00933265686035
29.06,-0.0100421905518
29.08,-0.0107517242432
29.1,-0.00791549682617
29.12,-0.00933265686035
29.14,-0.0100421905518
29.16,-0.00791549682617
29.18,-0.0107517242432
29.2,-0.0100421905518
29.22,-0.00791549682617
29.24,-0.0107517242432
29.26,-0.0107517242432
29.28,-0.00862312316895
29.3,-0.0114612579346
29.32,-0.0114612579346
29.34,-0.00933265686035
29.36,-0.0107517242432
29.38,-0.00862312316895
29.4,-0.00791549682617
29.42,-0.00862312316895
29.44,-0.00791549682617
29.46,-0.00791549682617
29.48,-0.00862312316895
29.5,-0.00720596313477
29.52,-0.00649642944336
29.54,-0.00720596313477
29.56,-0.00578689575195
29.58,-0.00649642944336
29.6,-0.00649642944336
29.62,-0.00507736206055
29.64,-0.00507736206055
29.66,-0.00791549682617
29.68,-0.00436782836914
29.7,-0.00649642944336
29.72,-0.00720596313477
29.74,-0.00791549682617
29.76,-0.00933265686035
29.78,-0.0100421905518
29.8,-0.00933265686035
29.82,-0.0114612579346
29.84,-0.0128784179688
29.86,-0.012170791626
29.88,-0.0157165527344
29.9,-0.0142974853516
29.92,-0.0157165527344
29.94,-0.0171337127686
29.96,-0.0185527801514
29.98,-0.0185527801514
30,-0.0206813812256
30.02,-0.0206813812256
30.04,-0.0192623138428
30.06,-0.0206813812256
30.08,-0.021390914917
30.1,-0.021390914917
30.12,-0.0220985412598
30.14,-0.021390914917
30.16,-0.0192623138428
30.18,-0.01784324646
30.2,-0.0157165527344
30.22,-0.0128784179688
30.24,-0.00862312316895
30.26,-0.00578689575195
30.28,-0.00436782836914
30.3,-0.00436782836914
30.32,0.00343322753906
30.34,0.0147800445557
30.36,0.0218734741211
30.38,0.0303840637207
30.4,0.0403118133545
30.42,0.0488243103027
30.44,0.0488243103027
30.46,0.0417308807373
30.48,0.0374755859375
30.5,0.0296745300293
30.52,0.0254192352295
30.54,0.0126533508301
30.56,-0.00720596313477
30.58,-0.021390914917
30.6,-0.0327377319336
30.62,-0.0327377319336
30.64,-0.0327377319336
30.66,-0.0313186645508
30.68,-0.0277729034424
30.7,-0.0355739593506
30.72,-0.0369930267334
30.74,-0.039119720459
30.76,-0.0440845489502
30.78,-0.0447940826416
30.8,-0.0462131500244
30.82,-0.0533046722412
30.84,-0.0525951385498
30.86,-0.057559967041
30.88,-0.0674896240234
30.9,-0.0930213928223
30.92,-0.134157180786
30.94,-0.158979415894
30.96,-0.177419662476
30.98,-0.195859909058
31,-0.197986602783
31.02,-0.181674957275
31.04,-0.154724121094
31.06,-0.124227523804
31.08,-0.0979862213135
31.1,-0.0830936431885
31.12,-0.0703258514404
31.14,-0.0625247955322
31.16,-0.0589790344238
31.18,-0.054723739624
31.2,-0.0540142059326
31.22,-0.0533046722412
31.24,-0.0511779785156
31.26,-0.0533046722412
31.28,-0.0554332733154
31.3,-0.0533046722412
31.32,-0.0582695007324
31.34,-0.0603981018066
31.36,-0.0603981018066
31.38,-0.0660705566406
31.4,-0.066780090332
31.42,-0.0689086914062
31.44,-0.0752906799316
31.46,-0.0738735198975
31.48,-0.0738735198975
31.5,-0.0774192810059
31.52,-0.0752906799316
31.54,-0.0738735198975
31.56,-0.0781288146973
31.58,-0.0738735198975
31.6,-0.0724544525146
31.62,-0.0738735198975
31.64,-0.0710353851318
31.66,-0.063943862915
31.68,-0.0653629302979
31.7,-0.0625247955322
31.72,-0.0533046722412
31.74,-0.04833984375
31.76,-0.0412483215332
31.78,-0.0327377319336
31.8,-0.0369930267334
31.82,-0.0355739593506
31.84,-0.0256462097168
31.86,-0.0199718475342
31.88,-0.0206813812256
31.9,-0.0171337127686
31.92,-0.0114612579346
31.94,-0.0142974853516
31.96,-0.012170791626
31.98,-0.00862312316895
32,-0.0142974853516
32.02,-0.0596885681152
32.04,-0.0752906799316
32.06,-0.0795459747314
32.08,-0.0816745758057
32.1,-0.07883644104
32.12,-0.0816745758057
32.14,-0.0781288146973
32.16,-0.0767097473145
32.18,-0.0816745758057
32.2,-0.0802555084229
32.22,-0.0745811462402
32.24,-0.0724544525146
32.26,-0.0646533966064
32.28,-0.0525951385498
32.3,-0.0533046722412
32.32,-0.051887512207
32.34,-0.0469226837158
32.36,-0.0419578552246
32.38,-0.0447940826416
32.4,-0.042667388916
32.42,-0.0405387878418
32.44,-0.0355739593506
32.46,-0.039119720459
32.48,-0.039119720459
32.5,-0.0440845489502
32.52,-0.0469226837158
32.54,-0.0596885681152
32.56,-0.0979862213135
32.58,-0.129192352295
32.6,-0.158979415894
32.62,-0.181674957275
32.64,-0.163944244385
32.66,-0.131320953369
32.68,-0.102951049805
32.7,-0.0752906799316
32.72,-0.0490493774414
32.74,-0.033447265625
32.76,-0.0157165527344
32.78,-0.00295066833496
32.8,0.00272369384766
32.82,0.0119438171387
32.84,0.0218734741211
32.86,0.0275459289551
32.88,0.0374755859375
32.9,0.0417308807373
32.92,0.0438594818115
32.94,0.0481147766113
32.96,0.0488243103027
32.98,0.0502414703369
33,0.0530796051025
33.02,0.0537872314453
33.04,0.0580425262451
33.06,0.0608806610107
33.08,0.0622978210449
33.1,0.0708103179932
33.12,0.0800285339355
33.14,0.0935039520264
33.16,0.125419616699
33.18,0.182157516479
33.2,0.262300491333
33.22,0.324712753296
33.24,0.333223342896
33.26,0.21265411377
33.28,0.0878314971924
33.3,0.0814476013184
33.32,0.0708103179932
33.34,0.0651359558105
33.36,0.0466957092285
33.38,-0.0107517242432
33.4,-0.0703258514404
33.42,-0.124937057495
33.44,-0.146923065186
33.46,-0.111461639404
33.48,-0.054723739624
33.5,-0.00933265686035
33.52,0.0183258056641
33.54,0.0318012237549
33.56,0.0381851196289
33.58,0.0452766418457
33.6,0.0488243103027
33.62,0.0516605377197
33.64,0.0594615936279
33.66,0.0608806610107
33.68,0.0686817169189
33.7,0.0956325531006
33.72,0.149534225464
33.74,0.272939682007
33.76,0.358755111694
33.78,0.311237335205
33.8,0.157335281372
33.82,0.0388946533203
33.84,0.0218734741211
33.86,0.00626945495605
33.88,-0.039119720459
33.9,-0.125646591187
33.92,-0.193731307983
33.94,-0.218555450439
33.96,-0.185930252075
33.98,-0.107206344604
34,-0.0554332733154
34.02,-0.0277729034424
34.04,-0.00862312316895
34.06,-0.00153160095215
34.08,0.00414276123047
34.1,0.0112342834473
34.12,0.0119438171387
34.14,0.0140705108643
34.16,0.0204544067383
34.18,0.0225830078125
34.2,0.0303840637207
34.22,0.0488243103027
34.24,0.080738067627
34.26,0.151660919189
34.28,0.257335662842
34.3,0.311237335205
34.32,0.275066375732
34.34,0.100597381592
34.36,0.0183258056641
34.38,0.0140705108643
34.4,0.00130462646484
34.42,-0.0384120941162
34.44,-0.102241516113
34.46,-0.170328140259
34.48,-0.216426849365
34.5,-0.208625793457
34.52,-0.139122009277
34.54,-0.0717449188232
34.56,-0.0291919708252
34.58,-0.0107517242432
34.6,-0.000822067260742
34.62,0.00768852233887
34.64,0.0105247497559
34.66,0.0176181793213
34.68,0.0254192352295
34.7,0.0403118133545
34.72,0.0885410308838
34.74,0.26088142395
34.76,0.51833152771
34.78,0.287832260132
34.8,0.0197448730469
34.82,-0.0135879516602
34.84,-0.119972229004
34.86,-0.268909454346
34.88,-0.24479675293
34.9,-0.131320953369
34.92,-0.051887512207
34.94,-0.00933265686035
34.96,0.0204544067383
34.98,0.0481147766113
35,0.089958190918
35.02,0.197761535645
35.04,0.398471832275
35.06,0.45308303833
35.08,0.087121963501
35.1,0.0247097015381
35.12,-0.126356124878
35.14,-0.310754776001
35.16,-0.228485107422
35.18,-0.0681991577148
35.2,0.00981521606445
35.22,0.0708103179932
35.24,0.206981658936
35.26,0.489961624146
35.28,0.423295974731
35.3,0.0410213470459
35.32,-0.0859298706055
35.34,-0.300825119019
35.36,-0.274583816528
35.38,-0.0660705566406
35.4,0.0438594818115
35.42,0.160171508789
35.44,0.377195358276
35.46,0.420457839966
35.48,0.0559158325195
35.5,-0.188058853149
35.52,-0.342670440674
35.54,-0.239122390747
35.56,-0.0447940826416
35.58,0.0268383026123
35.6,0.0679721832275
35.62,0.17364692688
35.64,0.504146575928
35.66,0.427551269531
35.68,0.0161991119385
35.7,-0.220682144165
35.72,-0.336996078491
35.74,-0.182384490967
35.76,-0.0128784179688
35.78,0.0665550231934
35.8,0.202726364136
35.82,0.5573387146
35.84,0.42684173584
35.86,0.0197448730469
35.88,-0.220682144165
35.9,-0.373167037964
35.92,-0.181674957275
35.94,0.00839805603027
35.96,0.0849933624268
35.98,0.226839065552
36,0.470813751221
36.02,0.289251327515
36.04,-0.0398292541504
36.06,-0.274583816528
36.08,-0.290895462036
36.1,-0.0724544525146
36.12,0.0261287689209
36.14,0.0715179443359
36.16,0.167264938354
36.18,0.507692337036
36.2,0.469394683838
36.22,0.0828666687012
36.24,-0.138412475586
36.26,-0.280258178711
36.28,-0.246923446655
36.3,-0.0696182250977
36.32,0.0169086456299
36.34,0.0424404144287
36.36,0.0530796051025
36.38,0.0552062988281
36.4,0.0530796051025
36.42,0.0552062988281
36.44,0.0559158325195
36.46,0.0601711273193
36.48,0.0679721832275
36.5,0.0708103179932
36.52,0.0729370117188
36.54,0.0793209075928
36.56,0.0786113739014
36.58,0.0771923065186
36.6,0.0800285339355
36.62,0.07790184021
36.64,0.0793209075928
36.66,0.0821571350098
36.68,0.0786113739014
36.7,0.0793209075928
36.72,0.0814476013184
36.74,0.0764827728271
36.76,0.0793209075928
36.78,0.080738067627
36.8,0.0786113739014
36.82,0.0835762023926
36.84,0.0835762023926
36.86,0.0864124298096
36.88,0.100597381592
36.9,0.118328094482
36.92,0.155916213989
36.94,0.23889541626
36.96,0.316911697388
36.98,0.309818267822
37,0.255208969116
37.02,0.16939163208
37.04,0.0906677246094
37.06,0.0708103179932
37.08,0.00272369384766
37.1,-0.0972766876221
37.12,-0.186639785767
37.14,-0.195150375366
37.16,-0.0916042327881
37.18,-0.00436782836914
37.2,0.0289649963379
37.22,0.0466957092285
37.24,0.0523700714111
37.26,0.0495319366455
37.28,0.0537872314453
37.3,0.0516605377197
37.32,0.0452766418457
37.34,0.0445690155029
37.36,0.0403118133545
37.38,0.0346393585205
37.4,0.0339298248291
37.42,0.0289649963379
37.44,0.0232906341553
37.46,0.0275459289551
37.48,0.0225830078125
37.5,0.0240001678467
37.52,0.0374755859375
37.54,0.0608806610107
37.56,0.126129150391
37.58,0.257335662842
37.6,0.317621231079
37.62,0.26088142395
37.64,0.0289649963379
37.66,-0.00791549682617
37.68,-0.0199718475342
37.7,-0.0320281982422
37.72,-0.0618152618408
37.74,-0.151887893677
37.76,-0.221391677856
37.78,-0.280967712402
37.8,-0.269618988037
37.82,-0.17954826355
37.84,-0.115007400513
37.86,-0.0795459747314
37.88,-0.0618152618408
37.9,-0.0568504333496
37.92,-0.0504684448242
37.94,-0.0504684448242
37.96,-0.0511779785156
37.98,-0.04833984375
38,-0.0511779785156
38.02,-0.0504684448242
38.04,-0.0490493774414
38.06,-0.0511779785156
38.08,-0.0525951385498
38.1,-0.0511779785156
38.12,-0.051887512207
38.14,-0.0497589111328
38.16,-0.045503616333
38.18,-0.0384120941162
38.2,-0.0157165527344
38.22,0.0396041870117
38.24,0.122583389282
38.26,0.150951385498
38.28,0.111234664917
38.3,0.0502414703369
38.32,-0.00507736206055
38.34,-0.0327377319336
38.36,-0.0525951385498
38.38,-0.0497589111328
38.4,-0.0398292541504
38.42,-0.042667388916
38.44,-0.0369930267334
38.46,-0.0419578552246
38.48,-0.0433769226074
38.5,-0.0447940826416
38.52,-0.0476322174072
38.54,-0.0476322174072
38.56,-0.036283493042
38.58,-0.036283493042
38.6,-0.0299015045166
38.62,-0.021390914917
38.64,-0.0256462097168
38.66,-0.0306091308594
38.68,-0.0235176086426
38.7,-0.0235176086426
38.72,-0.0235176086426
38.74,-0.0206813812256
38.76,-0.076000213623
38.78,-0.386642456055
38.8,-0.674587249756
38.82,-0.104370117188
38.84,-0.0228080749512
38.86,-0.0114612579346
38.88,-0.0128784179688
38.9,-0.00862312316895
38.92,-0.00862312316895
38.94,-0.0107517242432
38.96,-0.00791549682617
38.98,-0.00791549682617
39,-0.0100421905518
39.02,-0.00720596313477
39.04,-0.0100421905518
39.06,-0.00933265686035
39.08,-0.00862312316895
39.1,-0.0100421905518
39.12,-0.0107517242432
39.14,-0.00862312316895
39.16,-0.0114612579346
39.18,-0.0100421905518
39.2,-0.00791549682617
39.22,-0.00862312316895
39.24,-0.00720596313477
39.26,-0.00507736206055
39.28,-0.00720596313477
39.3,-0.00436782836914
39.32,-0.00366020202637
39.34,-0.00366020202637
39.36,-0.000112533569336
39.38,-0.00153160095215
39.4,-0.00366020202637
39.42,-0.00366020202637
39.44,-0.00578689575195
39.46,-0.00720596313477
39.48,-0.00720596313477
39.5,-0.0107517242432
39.52,-0.0107517242432
39.54,-0.0114612579346
39.56,-0.0142974853516
39.58,-0.0135879516602
39.6,-0.0128784179688
39.62,-0.012170791626
39.64,-0.0135879516602
39.66,-0.0107517242432
39.68,-0.0107517242432
39.7,-0.0135879516602
39.72,-0.0114612579346
39.74,-0.012170791626
39.76,-0.015007019043
39.78,-0.0157165527344
39.8,-0.0157165527344
39.82,-0.01784324646
39.84,-0.0171337127686
39.86,-0.0192623138428
39.88,-0.021390914917
39.9,-0.021390914917
39.92,-0.0220985412598
39.94,-0.0228080749512
39.96,-0.024227142334
39.98,-0.024227142334
40,-0.024227142334
40.02,-0.0249366760254
40.04,-0.0263538360596
40.06,-0.0256462097168
40.08,-0.0256462097168
40.1,-0.0284824371338
40.12,-0.0263538360596
40.14,-0.0284824371338
40.16,-0.0277729034424
40.18,-0.0263538360596
40.2,-0.0277729034424
40.22,-0.0263538360596
40.24,-0.0256462097168
40.26,-0.027063369751
40.28,-0.0263538360596
40.3,-0.0249366760254
40.32,-0.0256462097168
40.34,-0.0263538360596
40.36,-0.0235176086426
40.38,-0.021390914917
40.4,-0.0206813812256
40.42,-0.0192623138428
40.44,-0.015007019043
40.46,-0.0135879516602
40.48,-0.0107517242432
40.5,-0.00224113464355
40.52,0.00414276123047
40.54,0.0126533508301
40.56,0.0190353393555
40.58,0.0232906341553
40.6,0.0318012237549
40.62,0.0346393585205
40.64,0.0346393585205
40.66,0.0360565185547
40.68,0.0254192352295
40.7,0.0161991119385
40.72,0.0112342834473
40.74,0.0105247497559
40.76,0.0133628845215
40.78,-0.0206813812256
40.8,-0.0320281982422
40.82,-0.04833984375
40.84,-0.0469226837158
40.86,-0.0490493774414
40.88,-0.0476322174072
40.9,-0.045503616333
40.92,-0.04833984375
40.94,-0.0504684448242
40.96,-0.0525951385498
40.98,-0.0540142059326
41,-0.0469226837158
41.02,-0.036283493042
41.04,-0.0284824371338
41.06,-0.0164260864258
41.08,-0.051887512207
41.1,-0.0533046722412
41.12,-0.042667388916
41.14,-0.042667388916
41.16,-0.0398292541504
41.18,-0.0497589111328
41.2,-0.0533046722412
41.22,-0.0511779785156
41.24,-0.054723739624
41.26,-0.0568504333496
41.28,-0.0554332733154
41.3,-0.0582695007324
41.32,-0.0625247955322
41.34,-0.061107635498
41.36,-0.0674896240234
41.38,-0.0696182250977
41.4,-0.0717449188232
41.42,-0.0802555084229
41.44,-0.0845108032227
41.46,-0.0923118591309
41.48,-0.0994052886963
41.5,-0.104370117188
41.52,-0.112880706787
41.54,-0.124227523804
41.56,-0.125646591187
41.58,-0.129192352295
41.6,-0.134866714478
41.62,-0.133447647095
41.64,-0.136993408203
41.66,-0.141958236694
41.68,-0.134866714478
41.7,-0.136993408203
41.72,-0.136993408203
41.74,-0.135576248169
41.76,-0.136993408203
41.78,-0.131320953369
41.8,-0.128482818604
41.82,-0.129901885986
41.84,-0.124937057495
41.86,-0.119972229004
41.88,-0.120681762695
41.9,-0.115716934204
41.92,-0.113590240479
41.94,-0.112171173096
41.96,-0.106496810913
41.98,-0.102951049805
42,-0.10082244873
42.02,-0.0958595275879
42.04,-0.0923118591309
42.06,-0.0916042327881
42.08,-0.0852203369141
42.1,-0.0838012695312
42.12,-0.0816745758057
42.14,-0.0767097473145
42.16,-0.0795459747314
42.18,-0.0774192810059
42.2,-0.0703258514404
42.22,-0.0717449188232
42.24,-0.0681991577148
42.26,-0.0632343292236
42.28,-0.063943862915
42.3,-0.0589790344238
42.32,-0.0540142059326
42.34,-0.054723739624
42.36,-0.04833984375
42.38,-0.0412483215332
42.4,-0.0398292541504
42.42,-0.0313186645508
42.44,-0.027063369751
42.46,-0.0235176086426
42.48,-0.015007019043
42.5,-0.0114612579346
42.52,-0.00720596313477
42.54,0.000595092773438
42.56,0.00343322753906
42.58,0.00485229492188
42.6,0.0119438171387
42.62,0.0147800445557
42.64,0.0133628845215
42.66,0.0176181793213
42.68,0.0247097015381
42.7,0.0261287689209
42.72,0.0318012237549
42.74,0.0424404144287
42.76,0.0488243103027
42.78,0.0530796051025
42.8,0.0630073547363
42.82,0.0665550231934
42.84,0.0679721832275
42.86,0.075065612793
42.88,0.0814476013184
42.9,0.0878314971924
42.92,0.099178314209
42.94,0.102014541626
42.96,0.0977592468262
42.98,0.0984687805176
43,0.102014541626
43.02,0.100597381592
43.04,0.096342086792
43.06,0.0977592468262
43.08,0.096342086792
43.1,0.0885410308838
43.12,0.07790184021
43.14,0.0722274780273
43.16,0.0722274780273
43.18,0.0757732391357
43.2,0.0736465454102
43.22,0.0764827728271
43.24,0.0757732391357
43.26,0.0786113739014
43.28,0.0793209075928
43.3,0.07790184021
43.32,0.0793209075928
43.34,0.0800285339355
43.36,0.0814476013184
43.38,0.0835762023926
43.4,0.0842838287354
43.42,0.0771923065186
43.44,0.0800285339355
43.46,0.080738067627
43.48,0.0771923065186
43.5,0.0786113739014
43.52,0.0793209075928
43.54,0.0743560791016
43.56,0.0729370117188
43.58,0.0715179443359
43.6,0.0615901947021
43.62,0.0594615936279
43.64,0.0502414703369
43.66,0.0431499481201
43.68,0.0431499481201
43.7,0.0360565185547
43.72,0.0282554626465
43.74,0.0303840637207
43.76,0.0275459289551
43.78,0.0254192352295
43.8,0.0268383026123
43.82,0.0218734741211
43.84,0.0154895782471
43.86,0.0147800445557
43.88,0.00697898864746
43.9,0.00272369384766
43.92,0.00272369384766
43.94,-0.00720596313477
43.96,-0.012170791626
43.98,-0.0107517242432
44,-0.0228080749512
44.02,-0.0220985412598
44.04,-0.0192623138428
44.06,-0.0263538360596
44.08,-0.0284824371338
44.1,-0.0369930267334
44.12,-0.0476322174072
44.14,-0.045503616333
44.16,-0.036283493042
44.18,-0.024227142334
44.2,-0.00862312316895
44.22,0.000595092773438
44.24,0.00414276123047
44.26,0.0105247497559
44.28,0.0105247497559
44.3,0.0154895782471
44.32,0.0275459289551
44.34,0.0544967651367
44.36,0.119745254517
44.38,0.168682098389
44.4,0.121164321899
44.42,0.126129150391
44.44,0.171520233154
44.46,0.19563293457
44.48,0.0970516204834
44.5,-0.102241516113
44.52,-0.263944625854
44.54,-0.263944625854
44.56,-0.0880565643311
44.58,0.00555992126465
44.6,0.0935039520264
44.62,0.311946868896
44.64,0.449537277222
44.66,0.196342468262
44.68,-0.0781288146973
44.7,-0.3235206604
44.72,-0.373167037964
44.74,-0.141958236694
44.76,-0.0164260864258
44.78,0.0559158325195
44.8,0.189250946045
44.82,0.447408676147
44.84,0.341024398804
44.86,-0.0603981018066
44.88,-0.288059234619
44.9,-0.363237380981
44.92,-0.138412475586
44.94,-0.027063369751
44.96,0.0225830078125
44.98,0.0786113739014
45,0.284286499023
45.02,0.545282363892
45.04,0.00414276123047
45.06,-0.173873901367
45.08,-0.415719985962
45.1,-0.221391677856
45.12,-0.0440845489502
45.14,-0.00153160095215
45.16,0.0154895782471
45.18,0.0225830078125
45.2,0.0275459289551
45.22,0.0296745300293
45.24,0.0325107574463
45.26,0.0339298248291
45.28,0.0381851196289
45.3,0.0481147766113
45.32,0.0849933624268
45.34,0.266555786133
45.36,0.570104598999
45.38,0.264429092407
45.4,-0.0901851654053
45.42,-0.389478683472
45.44,-0.306499481201
45.46,-0.0660705566406
45.48,0.00555992126465
45.5,0.0254192352295
45.52,0.0310935974121
45.54,0.0353488922119
45.56,0.0367660522461
45.58,0.0374755859375
45.6,0.0396041870117
45.62,0.0388946533203
45.64,0.0417308807373
45.66,0.0459861755371
45.68,0.0594615936279
45.7,0.137475967407
45.72,0.480743408203
45.74,0.450954437256
45.76,0.0310935974121
45.78,-0.221391677856
45.8,-0.37103843689
45.82,-0.143377304077
45.84,-0.015007019043
45.86,0.0232906341553
45.88,0.0353488922119
45.9,0.0396041870117
45.92,0.0396041870117
45.94,0.0417308807373
45.96,0.0410213470459
45.98,0.0417308807373
46,0.0424404144287
46.02,0.0445690155029
46.04,0.0466957092285
46.06,0.0630073547363
46.08,0.144569396973
46.1,0.581453323364
46.12,0.473649978638
46.14,0.0296745300293
46.16,-0.212171554565
46.18,-0.407209396362
46.2,-0.16678237915
46.22,-0.0164260864258
46.24,0.0268383026123
46.26,0.0388946533203
46.28,0.0445690155029
46.3,0.0466957092285
46.32,0.0452766418457
46.34,0.0474052429199
46.36,0.0488243103027
46.38,0.0466957092285
46.4,0.0502414703369
46.42,0.0488243103027
46.44,0.0495319366455
46.46,0.0509510040283
46.48,0.0523700714111
46.5,0.0566253662109
46.52,0.0715179443359
46.54,0.145278930664
46.56,0.620460510254
46.58,0.596345901489
46.6,0.0119438171387
46.62,-0.101531982422
46.64,-0.442670822144
46.66,-0.202241897583
46.68,-0.00578689575195
46.7,0.0431499481201
46.72,0.0580425262451
46.74,0.0686817169189
46.76,0.0701007843018
46.78,0.0722274780273
46.8,0.0800285339355
46.82,0.0786113739014
46.84,0.0786113739014
46.86,0.0800285339355
46.88,0.0786113739014
46.9,0.07790184021
46.92,0.0821571350098
46.94,0.0793209075928
46.96,0.0821571350098
46.98,0.0885410308838
47,0.0977592468262
47.02,0.16513633728
47.04,0.414783477783
47.06,0.44882774353
47.08,0.120454788208
47.1,-0.124937057495
47.12,-0.254726409912
47.14,-0.0979862213135
47.16,0.0147800445557
47.18,0.0530796051025
47.2,0.0693912506104
47.22,0.0722274780273
47.24,0.0715179443359
47.26,0.0736465454102
47.28,0.0693912506104
47.3,0.0701007843018
47.32,0.0708103179932
47.34,0.0665550231934
47.36,0.0679721832275
47.38,0.0686817169189
47.4,0.0651359558105
47.42,0.0665550231934
47.44,0.0665550231934
47.46,0.0615901947021
47.48,0.065845489502
47.5,0.0644264221191
47.52,0.0608806610107
47.54,0.0665550231934
47.56,0.0771923065186
47.58,0.1041431427
47.6,0.282159805298
47.62,0.719751358032
47.64,0.133220672607
47.66,0.0665550231934
47.68,0.0672626495361
47.7,0.00910758972168
47.72,-0.137702941895
47.74,-0.285223007202
47.76,-0.253307342529
47.78,-0.0986957550049
47.8,-0.0171337127686
47.82,0.0126533508301
47.84,0.0183258056641
47.86,0.0232906341553
47.88,0.0225830078125
47.9,0.0176181793213
47.92,0.0154895782471
47.94,0.0154895782471
47.96,0.0105247497559
47.98,0.00839805603027
48,0.00697898864746
48.02,0.00130462646484
48.04,-0.000822067260742
48.06,0.000595092773438
48.08,-0.000112533569336
48.1,-0.00224113464355
48.12,-0.000112533569336
48.14,0.00343322753906
48.16,0.0275459289551
48.18,0.145278930664
48.2,0.373649597168
48.22,0.293506622314
48.24,0.0878314971924
48.26,-0.129901885986
48.28,-0.315719604492
48.3,-0.382387161255
48.32,-0.20578956604
48.34,-0.0965671539307
48.36,-0.061107635498
48.38,-0.04833984375
48.4,-0.045503616333
48.42,-0.0433769226074
48.44,-0.0419578552246
48.46,-0.042667388916
48.48,-0.042667388916
48.5,-0.0433769226074
48.52,-0.0433769226074
48.54,-0.0440845489502
48.56,-0.042667388916
48.58,-0.0440845489502
48.6,-0.045503616333
48.62,-0.0419578552246
48.64,-0.0313186645508
48.66,0.0154895782471
48.68,0.150951385498
48.7,0.167264938354
48.72,-0.061107635498
48.74,-0.258272171021
48.76,-0.229192733765
48.78,-0.134866714478
48.8,-0.0859298706055
48.82,-0.0681991577148
48.84,-0.0632343292236
48.86,-0.0568504333496
48.88,-0.057559967041
48.9,-0.0582695007324
48.92,-0.054723739624
48.94,-0.0554332733154
48.96,-0.054723739624
48.98,-0.0525951385498
49,-0.0540142059326
49.02,-0.0533046722412
49.04,-0.04833984375
49.06,-0.0504684448242
49.08,-0.0469226837158
49.1,-0.042667388916
49.12,-0.0412483215332
49.14,-0.0277729034424
49.16,0.0218734741211
49.18,0.17790222168
49.2,0.322584152222
49.22,0.0615901947021
49.24,-0.141958236694
49.26,-0.263944625854
49.28,-0.247632980347
49.3,-0.159688949585
49.32,-0.0901851654053
49.34,-0.0554332733154
49.36,-0.0412483215332
49.38,-0.027063369751
49.4,-0.0220985412598
49.42,-0.0199718475342
49.44,-0.0128784179688
49.46,-0.0142974853516
49.48,-0.015007019043
49.5,-0.0107517242432
49.52,-0.012170791626
49.54,-0.0114612579346
49.56,-0.00507736206055
49.58,-0.000822067260742
49.6,0.0211639404297
49.62,0.0942134857178
49.64,0.242443084717
49.66,0.198471069336
49.68,0.00485229492188
49.7,-0.154724121094
49.72,-0.212881088257
49.74,-0.152597427368
49.76,-0.0823841094971
49.78,-0.042667388916
49.8,-0.024227142334
49.82,-0.0185527801514
49.84,-0.0128784179688
49.86,-0.012170791626
49.88,-0.0142974853516
49.9,-0.0107517242432
49.92,-0.0107517242432
49.94,-0.0114612579346
49.96,-0.00720596313477
49.98,-0.00649642944336
50,0.00343322753906
50.02,0.0282554626465
50.04,0.104852676392
50.06,0.245988845825
50.08,0.26513671875
50.1,0.16088104248
50.12,0.0552062988281
50.14,-0.0589790344238
50.16,-0.176710128784
50.18,-0.234157562256
50.2,-0.209335327148
50.22,-0.140539169312
50.24,-0.07883644104
50.26,-0.0447940826416
50.28,-0.0277729034424
50.3,-0.01784324646
50.32,-0.0128784179688
50.34,-0.0114612579346
50.36,-0.00791549682617
50.38,-0.00791549682617
50.4,-0.00649642944336
50.42,-0.00153160095215
50.44,0.00697898864746
50.46,0.0431499481201
50.48,0.19988822937
50.5,0.434642791748
50.52,0.102014541626
50.54,-0.232740402222
50.56,-0.352598190308
50.58,-0.204370498657
50.6,-0.0866394042969
50.62,-0.0469226837158
50.64,-0.033447265625
50.66,-0.0263538360596
50.68,-0.0256462097168
50.7,-0.0249366760254
50.72,-0.024227142334
50.74,-0.0263538360596
50.76,-0.0256462097168
50.78,-0.024227142334
50.8,-0.0263538360596
50.82,-0.027063369751
50.84,-0.0263538360596
50.86,-0.027063369751
50.88,-0.0284824371338
50.9,-0.027063369751
50.92,-0.0284824371338
50.94,-0.0277729034424
50.96,-0.0284824371338
50.98,-0.0306091308594
51,-0.0306091308594
51.02,-0.0306091308594
51.04,-0.0327377319336
51.06,-0.0320281982422
51.08,-0.0320281982422
51.1,-0.033447265625
51.12,-0.0320281982422
51.14,-0.0320281982422
51.16,-0.033447265625
51.18,-0.0320281982422
51.2,-0.0355739593506
51.22,-0.0348644256592
51.24,-0.0355739593506
51.26,-0.0348644256592
51.28,-0.0355739593506
51.3,-0.0341567993164
51.32,-0.0355739593506
51.34,-0.036283493042
51.36,-0.0341567993164
51.38,-0.0369930267334
51.4,-0.0355739593506
51.42,-0.0341567993164
51.44,-0.0369930267334
51.46,-0.0355739593506
51.48,-0.0369930267334
51.5,-0.039119720459
51.52,-0.0369930267334
51.54,-0.0384120941162
51.56,-0.0398292541504
51.58,-0.039119720459
51.6,-0.039119720459
51.62,-0.0405387878418
51.64,-0.0405387878418
51.66,-0.039119720459
51.68,-0.0398292541504
51.7,-0.0398292541504
51.72,-0.039119720459
51.74,-0.0398292541504
51.76,-0.0398292541504
51.78,-0.0398292541504
51.8,-0.0398292541504
51.82,-0.0419578552246
51.84,-0.0405387878418
51.86,-0.0412483215332
51.88,-0.0419578552246
51.9,-0.0419578552246
51.92,-0.0419578552246
51.94,-0.0447940826416
51.96,-0.042667388916
51.98,-0.0433769226074
52,-0.0447940826416
52.02,-0.0419578552246
52.04,-0.042667388916
52.06,-0.0462131500244
52.08,-0.0447940826416
52.1,-0.0447940826416
52.12,-0.0476322174072
52.14,-0.0476322174072
52.16,-0.0469226837158
52.18,-0.0504684448242
52.2,-0.0511779785156
52.22,-0.0504684448242
52.24,-0.0540142059326
52.26,-0.0568504333496
52.28,-0.0561428070068
52.3,-0.0603981018066
52.32,-0.0632343292236
52.34,-0.0625247955322
52.36,-0.0681991577148
52.38,-0.0703258514404
52.4,-0.0696182250977
52.42,-0.0745811462402
52.44,-0.0781288146973
52.46,-0.0774192810059
52.48,-0.07883644104
52.5,-0.0823841094971
52.52,-0.0802555084229
52.54,-0.0795459747314
52.56,-0.0852203369141
52.58,-0.0809650421143
52.6,-0.0838012695312
52.62,-0.0845108032227
52.64,-0.0802555084229
52.66,-0.0823841094971
52.68,-0.0830936431885
52.7,-0.0781288146973
52.72,-0.0809650421143
52.74,-0.0802555084229
52.76,-0.0774192810059
52.78,-0.0809650421143
52.8,-0.0802555084229
52.82,-0.07883644104
52.84,-0.0823841094971
52.86,-0.0816745758057
52.88,-0.0795459747314
52.9,-0.0823841094971
52.92,-0.07883644104
52.94,-0.0795459747314
52.96,-0.0802555084229
52.98,-0.0752906799316
53,-0.076000213623
53.02,-0.0752906799316
53.04,-0.0689086914062
53.06,-0.0717449188232
53.08,-0.0710353851318
53.1,-0.066780090332
53.12,-0.0681991577148
53.14,-0.0674896240234
53.16,-0.063943862915
53.18,-0.0660705566406
53.2,-0.0632343292236
53.22,-0.0589790344238
53.24,-0.0625247955322
53.26,-0.0568504333496
53.28,-0.051887512207
53.3,-0.051887512207
53.32,-0.0447940826416
53.34,-0.0412483215332
53.36,-0.0412483215332
53.38,-0.0327377319336
53.4,-0.0284824371338
53.42,-0.0277729034424
53.44,-0.0185527801514
53.46,-0.01784324646
53.48,-0.0135879516602
53.5,-0.00649642944336
53.52,-0.00436782836914
53.54,-0.00295066833496
53.56,0.00130462646484
53.58,0.000595092773438
53.6,0.00130462646484
53.62,0.00768852233887
53.64,0.00839805603027
53.66,0.00981521606445
53.68,0.0176181793213
53.7,0.0190353393555
53.72,0.0225830078125
53.74,0.0296745300293
53.76,0.0346393585205
53.78,0.0388946533203
53.8,0.0431499481201
53.82,0.0417308807373
53.84,0.0466957092285
53.86,0.0474052429199
53.88,0.0474052429199
53.9,0.0495319366455
53.92,0.0495319366455
53.94,0.0509510040283
53.96,0.0537872314453
53.98,0.0559158325195
54,0.0566253662109
54.02,0.0587520599365
54.04,0.0587520599365
54.06,0.0601711273193
54.08,0.0637168884277
54.1,0.0630073547363
54.12,0.0637168884277
54.14,0.0665550231934
54.16,0.0665550231934
54.18,0.0665550231934
54.2,0.0693912506104
54.22,0.0686817169189
54.24,0.0693912506104
54.26,0.0715179443359
54.28,0.0715179443359
54.3,0.0708103179932
54.32,0.0722274780273
54.34,0.0715179443359
54.36,0.0686817169189
54.38,0.0693912506104
54.4,0.0665550231934
54.42,0.0651359558105
54.44,0.0679721832275
54.46,0.0608806610107
54.48,0.0594615936279
54.5,0.0608806610107
54.52,0.0552062988281
54.54,0.0530796051025
54.56,0.0580425262451
54.58,0.0552062988281
54.6,0.0552062988281
54.62,0.0587520599365
54.64,0.0544967651367
54.66,0.0516605377197
54.68,0.0544967651367
54.7,0.0523700714111
54.72,0.0459861755371
54.74,0.0488243103027
54.76,0.0474052429199
54.78,0.0388946533203
54.8,0.0388946533203
54.82,0.0381851196289
54.84,0.0282554626465
54.86,0.0247097015381
54.88,0.0268383026123
54.9,0.0204544067383
54.92,0.0183258056641
54.94,0.0211639404297
54.96,0.0190353393555
54.98,0.0161991119385
55,0.0176181793213
55.02,0.0161991119385
55.04,0.0133628845215
55.06,0.0140705108643
55.08,0.0140705108643
55.1,0.00981521606445
55.12,0.0112342834473
55.14,0.0140705108643
55.16,0.00981521606445
55.18,0.0119438171387
55.2,0.0140705108643
55.22,0.0112342834473
55.24,0.0112342834473
55.26,0.0147800445557
55.28,0.0105247497559
55.3,0.00839805603027
55.32,-0.0157165527344
55.34,-0.0901851654053
55.36,-0.347633361816
55.38,-0.722105026245
55.4,-0.0171337127686
55.42,1.15379905701
55.44,0.241024017334
55.46,0.0715179443359
55.48,0.0133628845215
55.5,0.0147800445557
55.52,0.0147800445557
55.54,0.0154895782471
55.56,0.0169086456299
55.58,0.0140705108643
55.6,0.0133628845215
55.62,0.0169086456299
55.64,0.0133628845215
55.66,0.0140705108643
55.68,0.0140705108643
55.7,0.0112342834473
55.72,0.0126533508301
55.74,0.0133628845215
55.76,0.0126533508301
55.78,0.0140705108643
55.8,0.0140705108643
55.82,0.0154895782471
55.84,0.0176181793213
55.86,0.0161991119385
55.88,0.0183258056641
55.9,0.0190353393555
55.92,0.0197448730469
55.94,0.0225830078125
55.96,0.0232906341553
55.98,0.0247097015381
56,0.0268383026123
56.02,0.0275459289551
56.04,0.0296745300293
56.06,0.0303840637207
56.08,0.0310935974121
56.1,0.0325107574463
56.12,0.0325107574463
56.14,0.0339298248291
56.16,0.0346393585205
56.18,0.0353488922119
56.2,0.0339298248291
56.22,0.0353488922119
56.24,0.0332202911377
56.26,0.0353488922119
56.28,0.0346393585205
56.3,0.0346393585205
56.32,0.0367660522461
56.34,0.0367660522461
56.36,0.0381851196289
56.38,0.0381851196289
56.4,0.0388946533203
56.42,0.0417308807373
56.44,0.0403118133545
56.46,0.0396041870117
56.48,0.0417308807373
56.5,0.0410213470459
56.52,0.0403118133545
56.54,0.0424404144287
56.56,0.0417308807373
56.58,0.0424404144287
56.6,0.0431499481201
56.62,0.0417308807373
56.64,0.0410213470459
56.66,0.0417308807373
56.68,0.0424404144287
56.7,0.0417308807373
56.72,0.0438594818115
56.74,0.0417308807373
56.76,0.0431499481201
56.78,0.0431499481201
56.8,0.0424404144287
56.82,0.0445690155029
56.84,0.0431499481201
56.86,0.0445690155029
56.88,0.0459861755371
56.9,0.0445690155029
56.92,0.0445690155029
56.94,0.0459861755371
56.96,0.0459861755371
56.98,0.0452766418457
57,0.0481147766113
57.02,0.0481147766113
57.04,0.0474052429199
57.06,0.0495319366455
57.08,0.0488243103027
57.1,0.0509510040283
57.12,0.0509510040283
57.14,0.0495319366455
57.16,0.0523700714111
57.18,0.0509510040283
57.2,0.0509510040283
57.22,0.0530796051025
57.24,0.0523700714111
57.26,0.0523700714111
57.28,0.0573348999023
57.3,0.0559158325195
57.32,0.0587520599365
57.34,0.0622978210449
57.36,0.0608806610107
57.38,0.0651359558105
57.4,0.0686817169189
57.42,0.0701007843018
57.44,0.0736465454102
57.46,0.07790184021
57.48,0.0771923065186
57.5,0.0828666687012
57.52,0.0842838287354
57.54,0.0828666687012
57.56,0.0878314971924
57.58,0.0892486572266
57.6,0.087121963501
57.62,0.089958190918
57.64,0.0920867919922
57.66,0.0885410308838
57.68,0.089958190918
57.7,0.0935039520264
57.72,0.0906677246094
57.74,0.0906677246094
57.76,0.0949230194092
57.78,0.0920867919922
57.8,0.0913772583008
57.82,0.0956325531006
57.84,0.096342086792
57.86,0.0949230194092
57.88,0.0984687805176
57.9,0.099178314209
57.92,0.0949230194092
57.94,0.0970516204834
57.96,0.0970516204834
57.98,0.0913772583008
58,0.0942134857178
58.02,0.0935039520264
58.04,0.0864124298096
58.06,0.0885410308838
58.08,0.089958190918
58.1,0.0828666687012
58.12,0.0828666687012
58.14,0.0849933624268
58.16,0.080738067627
58.18,0.080738067627
58.2,0.0828666687012
58.22,0.0800285339355
58.24,0.0771923065186
58.26,0.0793209075928
58.28,0.0757732391357
58.3,0.0708103179932
58.32,0.075065612793
58.34,0.075065612793
58.36,0.0693912506104
58.38,0.0722274780273
58.4,0.0708103179932
58.42,0.0665550231934
58.44,0.0665550231934
58.46,0.0672626495361
58.48,0.0637168884277
58.5,0.0601711273193
58.52,0.0601711273193
58.54,0.0523700714111
58.56,0.0495319366455
58.58,0.0481147766113
58.6,0.0381851196289
58.62,0.0360565185547
58.64,0.0332202911377
58.66,0.0225830078125
58.68,0.0126533508301
58.7,-0.0206813812256
58.72,-0.24054145813
58.74,-1.26466369629
58.76,0.179321289062
58.78,0.89351272583
58.8,0.172229766846
58.82,-0.00436782836914
58.84,-0.00366020202637
58.86,-0.00436782836914
58.88,-0.0135879516602
58.9,-0.0157165527344
58.92,-0.0171337127686
58.94,-0.021390914917
58.96,-0.0299015045166
58.98,-0.0306091308594
59,-0.0341567993164
59.02,-0.0433769226074
59.04,-0.0469226837158
59.06,-0.04833984375
59.08,-0.051887512207
59.1,-0.0504684448242
59.12,-0.0540142059326
59.14,-0.0533046722412
59.16,-0.0511779785156
59.18,-0.054723739624
59.2,-0.0525951385498
59.22,-0.0540142059326
59.24,-0.054723739624
59.26,-0.0554332733154
59.28,-0.0561428070068
59.3,-0.0554332733154
59.32,-0.0568504333496
59.34,-0.0561428070068
59.36,-0.0582695007324
59.38,-0.0568504333496
59.4,-0.0561428070068
59.42,-0.057559967041
59.44,-0.0589790344238
59.46,-0.057559967041
59.48,-0.0582695007324
59.5,-0.0589790344238
59.52,-0.0589790344238
59.54,-0.0596885681152
59.56,-0.0582695007324
59.58,-0.0554332733154
59.6,-0.057559967041
59.62,-0.054723739624
59.64,-0.0533046722412
59.66,-0.0561428070068
59.68,-0.0533046722412
59.7,-0.0511779785156
59.72,-0.0504684448242
59.74,-0.0469226837158
59.76,-0.045503616333
59.78,-0.0462131500244
59.8,-0.0419578552246
59.82,-0.0419578552246
59.84,-0.0447940826416
59.86,-0.039119720459
59.88,-0.039119720459
59.9,-0.0384120941162
59.92,-0.0320281982422
59.94,-0.0341567993164
59.96,-0.0313186645508
59.98,-0.024227142334
60,-0.0263538360596
60.02,-0.0185527801514
60.04,-0.0128784179688
60.06,-0.0157165527344
60.08,-0.012170791626
60.1,-0.0114612579346
60.12,-0.0135879516602
60.14,-0.0107517242432
60.16,-0.0107517242432
60.18,-0.0135879516602
60.2,-0.00862312316895
60.22,-0.0100421905518
60.24,-0.0114612579346
60.26,-0.00862312316895
60.28,-0.0107517242432
60.3,-0.0107517242432
60.32,-0.00720596313477
60.34,-0.0100421905518
60.36,-0.00862312316895
60.38,-0.00720596313477
60.4,-0.0100421905518
60.42,-0.00933265686035
60.44,-0.00862312316895
60.46,-0.0114612579346
60.48,-0.0100421905518
60.5,-0.00862312316895
60.52,-0.0114612579346
60.54,-0.0100421905518
60.56,-0.0100421905518
60.58,-0.0107517242432
60.6,-0.00791549682617
60.62,-0.00862312316895
60.64,-0.00933265686035
60.66,-0.00649642944336
60.68,-0.00862312316895
60.7,-0.00862312316895
60.72,-0.00649642944336
60.74,-0.00862312316895
60.76,-0.00791549682617
60.78,-0.00649642944336
60.8,-0.00862312316895
60.82,-0.00791549682617
60.84,-0.00649642944336
60.86,-0.00791549682617
60.88,-0.00862312316895
60.9,-0.00720596313477
60.92,-0.00933265686035
60.94,-0.00862312316895
60.96,-0.00933265686035
60.98,-0.0100421905518
61,-0.00862312316895
61.02,-0.0107517242432
61.04,-0.0114612579346
61.06,-0.0114612579346
61.08,-0.0128784179688
61.1,-0.0142974853516
61.12,-0.015007019043
61.14,-0.0164260864258
61.16,-0.0171337127686
61.18,-0.0199718475342
61.2,-0.021390914917
61.22,-0.0228080749512
61.24,-0.0235176086426
61.26,-0.0249366760254
61.28,-0.0256462097168
61.3,-0.0256462097168
61.32,-0.0284824371338
61.34,-0.0284824371338
61.36,-0.0299015045166
61.38,-0.0320281982422
61.4,-0.0320281982422
61.42,-0.0320281982422
61.44,-0.0320281982422
61.46,-0.033447265625
61.48,-0.0320281982422
61.5,-0.0355739593506
61.52,-0.0341567993164
61.54,-0.0355739593506
61.56,-0.039119720459
61.58,-0.0469226837158
61.6,-0.0646533966064
61.62,-0.158269882202
61.64,0.0956325531006
61.66,0.0601711273193
61.68,0.0126533508301
61.7,-0.0171337127686
61.72,-0.0220985412598
61.74,-0.045503616333
61.76,-0.0525951385498
61.78,-0.0469226837158
61.8,-0.0419578552246
61.82,-0.042667388916
61.84,-0.0419578552246
61.86,-0.042667388916
61.88,-0.0440845489502
61.9,-0.0462131500244
61.92,-0.0525951385498
61.94,-0.0469226837158
61.96,-0.0412483215332
61.98,-0.033447265625
62,-0.0469226837158
62.02,-0.0405387878418
62.04,-0.0398292541504
62.06,-0.0433769226074
62.08,-0.0447940826416
62.1,-0.042667388916
62.12,-0.0440845489502
62.14,-0.0412483215332
62.16,-0.0398292541504
62.18,-0.039119720459
62.2,-0.0398292541504
62.22,-0.0405387878418
62.24,-0.0412483215332
62.26,-0.042667388916
62.28,-0.0412483215332
62.3,-0.0419578552246
62.32,-0.0433769226074
62.34,-0.0433769226074
62.36,-0.0412483215332
62.38,-0.042667388916
62.4,-0.0440845489502
62.42,-0.042667388916
62.44,-0.0440845489502
62.46,-0.0447940826416
62.48,-0.0433769226074
62.5,-0.0433769226074
62.52,-0.045503616333
62.54,-0.0440845489502
62.56,-0.045503616333
62.58,-0.0469226837158
62.6,-0.0476322174072
62.62,-0.04833984375
62.64,-0.0462131500244
62.66,-0.0490493774414
62.68,-0.0497589111328
62.7,-0.0497589111328
62.72,-0.0703258514404
62.74,-0.0632343292236
62.76,-0.063943862915
62.78,-0.0681991577148
62.8,-0.0703258514404
62.82,-0.0689086914062
62.84,-0.0738735198975
62.86,-0.0738735198975
62.88,-0.0745811462402
62.9,-0.0802555084229
62.92,-0.0809650421143
62.94,-0.0845108032227
62.96,-0.0908946990967
62.98,-0.0880565643311
63,-0.0923118591309
63.02,-0.0986957550049
63.04,-0.0951499938965
63.06,-0.103660583496
63.08,-0.105079650879
63.1,-0.102241516113
63.12,-0.108625411987
63.14,-0.109334945679
63.16,-0.107206344604
63.18,-0.110752105713
63.2,-0.109334945679
63.22,-0.107915878296
63.24,-0.114297866821
63.26,-0.110752105713
63.28,-0.110042572021
63.3,-0.113590240479
63.32,-0.108625411987
63.34,-0.105787277222
63.36,-0.102241516113
63.38,-0.0838012695312
63.4,-0.0838012695312
63.42,-0.0845108032227
63.44,-0.0802555084229
63.46,-0.0852203369141
63.48,-0.0838012695312
63.5,-0.0809650421143
63.52,-0.0830936431885
63.54,-0.0823841094971
63.56,-0.07883644104
63.58,-0.0802555084229
63.6,-0.0781288146973
63.62,-0.0745811462402
63.64,-0.0774192810059
63.66,-0.0738735198975
63.68,-0.0752906799316
63.7,-0.0774192810059
63.72,-0.0731639862061
63.74,-0.0724544525146
63.76,-0.0738735198975
63.78,-0.0681991577148
63.8,-0.0689086914062
63.82,-0.0696182250977
63.84,-0.0632343292236
63.86,-0.063943862915
63.88,-0.0632343292236
63.9,-0.057559967041
63.92,-0.0589790344238
63.94,-0.057559967041
63.96,-0.051887512207
63.98,-0.051887512207
64,-0.0497589111328
64.02,-0.042667388916
64.04,-0.042667388916
64.06,-0.0384120941162
64.08,-0.0327377319336
64.1,-0.0320281982422
64.12,-0.027063369751
64.14,-0.0235176086426
64.16,-0.0228080749512
64.18,-0.0164260864258
64.2,-0.012170791626
64.22,-0.0114612579346
64.24,-0.00507736206055
64.26,-0.00366020202637
64.28,-0.00436782836914
64.3,-0.000112533569336
64.32,0.00201416015625
64.34,0.00201416015625
64.36,0.00839805603027
64.38,0.00981521606445
64.4,0.0112342834473
64.42,0.0176181793213
64.44,0.0197448730469
64.46,0.0211639404297
64.48,0.0296745300293
64.5,0.0346393585205
64.52,0.0374755859375
64.54,0.0410213470459
64.56,0.0417308807373
64.58,0.0445690155029
64.6,0.0445690155029
64.62,0.0459861755371
64.64,0.0481147766113
64.66,0.0488243103027
64.68,0.0495319366455
64.7,0.0516605377197
64.72,0.0530796051025
64.74,0.0530796051025
64.76,0.0559158325195
64.78,0.0573348999023
64.8,0.0580425262451
64.82,0.0594615936279
64.84,0.0587520599365
64.86,0.0580425262451
64.88,0.0608806610107
64.9,0.0615901947021
64.92,0.0630073547363
64.94,0.0651359558105
64.96,0.0686817169189
64.98,0.0743560791016
65,0.0849933624268
65.02,0.102014541626
65.04,0.129674911499
65.06,0.162300109863
65.08,0.167974472046
65.1,0.120454788208
65.12,0.0346393585205
65.14,-0.00933265686035
65.16,-0.0355739593506
65.18,-0.00153160095215
65.2,0.0225830078125
65.22,0.0346393585205
65.24,0.0452766418457
65.26,0.0481147766113
65.28,0.0488243103027
65.3,0.0552062988281
65.32,0.0530796051025
65.34,0.0587520599365
65.36,0.0693912506104
65.38,0.0849933624268
65.4,0.13038444519
65.42,0.221164703369
65.44,0.324003219604
65.46,0.317621231079
65.48,0.089958190918
65.5,0.0154895782471
65.52,-0.0767097473145
65.54,-0.16678237915
65.56,-0.154014587402
65.58,-0.0944404602051
65.6,-0.0398292541504
65.62,-0.0157165527344
65.64,0.00272369384766
65.66,0.0169086456299
65.68,0.0204544067383
65.7,0.0282554626465
65.72,0.0459861755371
65.74,0.0693912506104
65.76,0.126838684082
65.78,0.248825073242
65.8,0.325422286987
65.82,0.089958190918
65.84,-0.015007019043
65.86,-0.0596885681152
65.88,-0.178838729858
65.9,-0.202951431274
65.92,-0.145503997803
65.94,-0.0816745758057
65.96,-0.0369930267334
65.98,-0.0157165527344
66,-0.00578689575195
66.02,0.000595092773438
66.04,0.00272369384766
66.06,0.00343322753906
66.08,0.00697898864746
66.1,0.0105247497559
66.12,0.0112342834473
66.14,0.0126533508301
66.16,0.0147800445557
66.18,0.0154895782471
66.2,0.0147800445557
66.22,0.0176181793213
66.24,0.0161991119385
66.26,0.0154895782471
66.28,0.0169086456299
66.3,0.0161991119385
66.32,0.0140705108643
66.34,0.0161991119385
66.36,0.0161991119385
66.38,0.0133628845215
66.4,0.0154895782471
66.42,0.0154895782471
66.44,0.0133628845215
66.46,0.0140705108643
66.48,0.0147800445557
66.5,0.0126533508301
66.52,0.0126533508301
66.54,0.0133628845215
66.56,0.0119438171387
66.58,0.0126533508301
66.6,0.0133628845215
66.62,0.0119438171387
66.64,0.0119438171387
66.66,0.0133628845215
66.68,0.0112342834473
66.7,0.0133628845215
66.72,0.0126533508301
66.74,0.0126533508301
66.76,0.0154895782471
66.78,0.0147800445557
66.8,0.0147800445557
66.82,0.0169086456299
66.84,0.0161991119385
66.86,0.0183258056641
66.88,0.0190353393555
66.9,0.0197448730469
66.92,0.0190353393555
66.94,0.0225830078125
66.96,0.0218734741211
66.98,0.0218734741211
67,0.0247097015381
67.02,0.0247097015381
67.04,0.0268383026123
67.06,0.0261287689209
67.08,0.0275459289551
67.1,0.0282554626465
67.12,0.0296745300293
67.14,0.0289649963379
67.16,0.0289649963379
67.18,0.0310935974121
67.2,0.0303840637207
67.22,0.0310935974121
67.24,0.0310935974121
67.26,0.0318012237549
67.28,0.0318012237549
67.3,0.0332202911377
67.32,0.0310935974121
67.34,0.0339298248291
67.36,0.0339298248291
67.38,0.0346393585205
67.4,0.0346393585205
67.42,0.0353488922119
67.44,0.0360565185547
67.46,0.0374755859375
67.48,0.0381851196289
67.5,0.0374755859375
67.52,0.0396041870117
67.54,0.0374755859375
67.56,0.0381851196289
67.58,0.0388946533203
67.6,0.0381851196289
67.62,0.0388946533203
67.64,0.0396041870117
67.66,0.0388946533203
67.68,0.0388946533203
67.7,0.0396041870117
67.72,0.0388946533203
67.74,0.0396041870117
67.76,0.0403118133545
67.78,0.0381851196289
67.8,0.0396041870117
67.82,0.0388946533203
67.84,0.0388946533203
67.86,0.0396041870117
67.88,0.0396041870117
67.9,0.0381851196289
67.92,0.0388946533203
67.94,0.0381851196289
67.96,0.0381851196289
67.98,0.0403118133545
68,0.0410213470459
68.02,0.0410213470459
68.04,0.0410213470459
68.06,0.0410213470459
68.08,0.0410213470459
68.1,0.0431499481201
68.12,0.0424404144287
68.14,0.0417308807373
68.16,0.0431499481201
68.18,0.0417308807373
68.2,0.0438594818115
68.22,0.0438594818115
68.24,0.0431499481201
68.26,0.0459861755371
68.28,0.0445690155029
68.3,0.0452766418457
68.32,0.0466957092285
68.34,0.0466957092285
68.36,0.0459861755371
68.38,0.0481147766113
68.4,0.0474052429199
68.42,0.0481147766113
68.44,0.0509510040283
68.46,0.0488243103027
68.48,0.0509510040283
68.5,0.0537872314453
68.52,0.0530796051025
68.54,0.0566253662109
68.56,0.0601711273193
68.58,0.0594615936279
68.6,0.0630073547363
68.62,0.0651359558105
68.64,0.0651359558105
68.66,0.0686817169189
68.68,0.0715179443359
68.7,0.0701007843018
68.72,0.0743560791016
68.74,0.0722274780273
68.76,0.0729370117188
68.78,0.0764827728271
68.8,0.0729370117188
68.82,0.0743560791016
68.84,0.0764827728271
68.86,0.0736465454102
68.88,0.075065612793
68.9,0.0757732391357
68.92,0.0729370117188
68.94,0.075065612793
68.96,0.0743560791016
68.98,0.0715179443359
69,0.0743560791016
69.02,0.0736465454102
69.04,0.0701007843018
69.06,0.0736465454102
69.08,0.0715179443359
69.1,0.0701007843018
69.12,0.0729370117188
69.14,0.0693912506104
69.16,0.0686817169189
69.18,0.0686817169189
69.2,0.0651359558105
69.22,0.0672626495361
69.24,0.0672626495361
69.26,0.0644264221191
69.28,0.0644264221191
69.3,0.0644264221191
69.32,0.0615901947021
69.34,0.0644264221191
69.36,0.0622978210449
69.38,0.0587520599365
69.4,0.0601711273193
69.42,0.0580425262451
69.44,0.0552062988281
69.46,0.0573348999023
69.48,0.0537872314453
69.5,0.0502414703369
69.52,0.0530796051025
69.54,0.0495319366455
69.56,0.0459861755371
69.58,0.0474052429199
69.6,0.0445690155029
69.62,0.0381851196289
69.64,0.0381851196289
69.66,0.0367660522461
69.68,0.0318012237549
69.7,0.0289649963379
69.72,0.0289649963379
69.74,0.0240001678467
69.76,0.0211639404297
69.78,0.0211639404297
69.8,0.0161991119385
69.82,0.0112342834473
69.84,0.0119438171387
69.86,0.00910758972168
69.88,0.00343322753906
69.9,0.00272369384766
69.92,0.00272369384766
69.94,-0.00224113464355
69.96,-0.00153160095215
69.98,-0.00153160095215
70,-0.00720596313477
70.02,-0.00933265686035
70.04,-0.00862312316895
70.06,-0.0114612579346
70.08,-0.015007019043
70.1,-0.015007019043
70.12,-0.01784324646
70.14,-0.024227142334
70.16,-0.0249366760254
70.18,-0.0284824371338
70.2,-0.0355739593506
70.22,-0.0355739593506
70.24,-0.036283493042
70.26,-0.0412483215332
70.28,-0.0398292541504
70.3,-0.039119720459
70.32,-0.0419578552246
70.34,-0.0405387878418
70.36,-0.0384120941162
70.38,-0.042667388916